20020000
0000017D
00000181
00000183
00000000
00000000
00000000
00000000
00000000
00000000
00000000
0000019D
00000000
00000000
0000019F
00000D3D
000001AD
000001AD
000001AD
000001AD
000001AD
000001AD
000001AD
000001AD
000001AD
000001AD
000001AD
000001AD
000001AD
000001AD
000001AD
000001AD
000001AD
000001AD
000001AD
000001AD
000001AD
000001AD
000001AD
000001AD
000001AD
000001AD
000001AD
000001AD
000001AD
000001AD
000001AD
000001AD
F108F85F
F000B573
2300F918
49214820
181A4C21
D326428A
4B202100
42934A20
2500D325
F90DF000
4668A901
F8FAF000
4C1D4E1C
10A41BA4
DC1A42AC
4D1B2600
1B644C1B
42B410A4
9901DC18
F0029800
0006F9E9
4C184D17
10A41B64
DC122C00
F0000030
58E5F8D8
60153304
C302E7D1
00ABE7D5
479858F3
E7DD3501
58EB00B3
36014798
3C01E7DF
58EB00A3
E7E54798
20000000
2000076C
000096DC
20000770
20016728
000001D8
000001D8
000001D8
000001E4
000001E4
000001E8
47004809
2004E7FE
42084671
F3EFD002
E0018009
8008F3EF
4A044671
E7FE4710
E7FEE7FE
00004770
000000C5
0000019B
0000E7FE
000096DC
20000000
2000076C
000096DC
00000000
00000000
20000770
20016728
00000000
00000000
000026B5
00002AFD
00003659
00002BA5
4C16B5F0
44A5000E
AD070004
93059204
4A132100
F0070028
99C8FBE1
91029AC9
99C69203
91009AC7
68239201
685F0029
9BC40020
47B822F3
9AC999C8
92039102
682322F3
95019200
0031681D
9B059A04
47A80020
009B23BF
BDF0449D
FFFFFD04
000002D9
0016B5F0
AF00B085
60796038
2300001D
60FB2200
60BE6AFB
D102429A
429E6ABB
0032D817
68780029
FB14F007
6879683B
6838681B
001C689B
6B7B6B3A
6ABA47A0
68B86AFB
1A1268F9
62BA418B
19AB62FB
466AE7DC
08DB1DF3
1AD300DB
0032469D
466868F9
FB88F007
00296ABA
F0074668
2201FAF1
46696ABB
701A446B
00326878
FAE8F007
B00546BD
B510BDF0
F818F000
2001B510
FFF9F7FF
60032301
600B4B01
46C04770
20000000
F7FFB510
B510FFF1
F81AF000
B510BD10
F80EF000
0000BD10
8F4FF3BF
4A034B02
F3BF60DA
E7FE8F4F
E000ED00
05FA0004
4A024B01
4770601A
20000008
05F5E100
4A024B01
4770601A
20000008
05F5E100
B0EFB5F0
60FBAF00
3B010013
61B90006
2B02613A
2232D904
48414940
FDD0F000
693A4B40
2330623B
61FB4353
69FA466B
1A9B0031
469D0015
446D3D30
4B3A60BB
00282230
F007681C
4B38FA89
681869BA
F0000029
0020FB15
FB5AF000
00200029
FB5FF000
00200029
FB6CF000
F0000020
0029FB4F
F0000020
2320FB54
F00018F8
2330FB47
607B2600
429E693B
231BD237
4C25617B
6820002A
F00068F9
6823FB67
61BB241A
F00069B8
0029FB33
F00069B8
3C01FB38
69B80029
FB44F000
D1F12C00
00292320
F00018F8
4B17FB2C
681868F9
FB2CF000
3B01697B
617BB2DB
D1D82B00
68BB6879
18594371
001C2320
F00018F8
3601FB29
F0001938
B2F6FB0B
2320E7C4
18F8001C
68B969FA
FB07F000
193868F9
FB18F000
B06F46BD
46C0BDF0
00007BC0
00007BF8
000081D8
200000E8
200000E4
2503B570
18CB4C0A
D0104299
26002000
31015608
4368300D
57861820
26017016
70565786
B2407880
32037090
BD70E7EC
00007C58
0018B570
2103000D
F0050014
2103FC23
18202209
D0104284
26012300
702356EB
434E57AE
2602199B
7023B2DB
350357AE
199B4356
34017023
BD70E7EC
0004B530
B0970015
23F3AA01
FFDAF7FF
002A6823
A901689B
47980020
BD30B017
B5702000
42980006
560DD00D
D1022D39
30015416
B2ECE7F7
DD022D4D
54143C5B
3C40E7F7
BD70E7FB
B5302000
42984D04
560CD005
7B64192C
30015414
BD30E7F7
00007C3C
DD032904
B2493909
47700008
DAFB1D0B
E7F83109
B510232C
58D058CC
D3084284
42843B04
2001D901
1D18BD10
2000D1F4
2001E7FA
E7F74240
2400B5F0
00202501
002746AC
591D5916
182D1975
D80A42AE
D0032800
42AE0038
B2C04178
3404510D
D1EF2C30
4660BDF0
B5F0E7F8
469C2400
00232001
592D4665
43EF5916
197D1985
D80A42AE
D0032800
42AE0018
B2C04158
3404510D
D1ED2C30
2001BDF0
680BE7F8
189AB510
D9084293
24002001
680AC104
429A1C53
600BD804
2000E001
BD10600A
C1103001
D1F2280C
B5F7E7F9
000C0017
009D2600
18ED1D0B
003A2300
00196820
FD3CF005
96002300
9A009301
18809B01
C4014159
42A5000E
0008D1EE
0000BDFE
0014B5F7
0007000D
21002230
F0070020
2150F9B5
56690038
FF72F7FF
334F002B
1E6B9300
30042500
93016020
9A019B00
D01D4293
221B781E
002B360D
00380021
F7FFB2F6
2800FFC2
2D0AD004
3501D802
511800AB
D0072E00
00210032
F7FF0038
4285FF9E
0005D200
3B019B00
E7DD9300
4B030038
00210022
FF77F7FF
46C0BDF7
00007CAC
B085B5F0
22009203
190C009C
42AC1F0D
2600D00F
68230017
93009601
99019800
19809A03
00334179
FCB6F005
60603C04
0010E7ED
BDF0B005
B5706ACB
000C0005
DA0E2B00
F7FF4A0D
2300FF23
DA064298
00224B0B
00280021
FF2CF7FF
00182301
4A08BD70
FF14F7FF
42982300
4B04DDF7
00210022
F7FF0028
E7EFFF36
00007C0C
00007CDC
00007CAC
000CB5F7
92000006
FFD2F7FF
00224B13
00300021
FF0AF7FF
250B9F00
3350003B
002B9301
0021221B
F7FF0030
380DFFA5
2D007038
00ABD004
425A591B
1AED4153
37019B01
D1EC42BB
00306821
B249390D
FED0F7FF
33509B00
BDF77018
00007CAC
0014B510
3430312C
D00A42A2
3904680B
70100E18
70500C18
70900A18
320470D3
BD10E7F2
000CB510
3430322C
D00E428C
780B7848
43180200
3A04788B
4318041B
310478CB
4303061B
6053BA1B
BD10E7EE
B085B5F0
93019200
9A0B2100
F007980A
9B00F8D7
43139A01
2000D102
BDF0B005
2B009B00
2380D104
061B9A01
D033429A
9F019E00
2B009B01
0033DA04
2700003C
41A7425E
9B0B9D0A
930318EB
9B030030
42AB4338
2800D024
0030D0DF
22030039
F0052300
0030FBFD
00140039
22032300
FBF6F005
000F0006
D1052C02
23012400
416718F6
42642401
2B009B01
4264DA00
702CB264
E7D93501
26002780
E7D1063F
41981E43
E7B9B2C0
0004B530
68030015
681BB08D
4798466A
4669002A
F7FF0020
B00DFF77
B530BD30
00150004
B08D6803
466A689B
002A4798
00204669
FF68F7FF
BD30B00D
0004B530
B08D0015
F7FF466A
6823FF71
68DB002A
00204669
B00D4798
B530BD30
00150004
AA01B097
FFEAF7FF
002A2351
0020A901
FDAAF7FF
BD30B017
000CB5F0
0007B097
00182151
26510015
F9E2F005
19A64346
D00D42B4
23510021
0038AA01
FDDCF7FF
A901002A
F7FF0038
3451FFBA
E7EF3530
BDF0B017
000CB5F0
0007B097
00182130
26300015
F9C4F005
19A64346
D00D42B4
AA010021
F7FF0038
002AFFB1
A9012351
F7FF0038
3430FDCD
E7EF3551
BDF0B017
0004B530
466AB08D
F7FF000D
4669FF17
F7FF0020
2800FEA9
002AD004
00204669
FEFAF7FF
BD30B00D
0004B570
000DB08C
D0101E16
F7FF466A
0032FF01
00204669
FE03F7FF
00204669
FE8EF7FF
4669002A
F7FF0020
B00CFEE1
B5F0BD70
B0852503
00100004
AF02466A
6A7B0019
1DEB435D
00DB08DB
469D1AD3
AB02466A
6A7B607B
08DB3307
1AD300DB
9501469D
AE02687B
00029300
0020000B
FEE6F7FF
0032002B
00206879
FD32F7FF
6A3A6A7B
00200031
FD6EF7FF
BDF746BD
6803B510
4798689B
B510BD10
FBA0F002
B510BD10
F0022230
BD10FB9B
000DB570
68030004
4798689B
00200029
FFF1F7FF
0000BD70
000CB510
4669B08C
FBD7F002
46692230
F0060020
4B03FF01
68180021
FF7AF7FF
BD10B00C
200000E4
000CB530
B08D0015
F0024669
2230FBC2
00204669
FEECF006
00212230
F0060028
4B07FEE7
68180029
FF60F7FF
32300022
43DB7823
34017023
D1F94294
BD30B00D
200000E4
0004B570
001D0008
63600011
22306323
F0060020
4B09FECB
6818002A
F7FF0021
6B60FF57
FF9CF7FF
6B600021
FFA1F7FF
00216B60
FFAEF7FF
BD700020
200000E4
000EB5F0
B08F0037
00040001
00156B40
FF94F7FF
37304B19
930118F3
21002230
F006A802
2600FF35
6B600021
FF86F7FF
0021AA02
F7FF6B60
230DFFA1
1B9E57AE
D30B3E01
F7FF6B60
A902FF6B
F7FF6B60
A902FF70
F7FF6B60
E7F1FF7D
23304808
A902003A
F7FF6800
9B01FEE1
35013751
D1D3429F
B00F2001
46C0BDF0
000008BB
200000E4
B5702301
00042500
60C3425B
00294B1F
4A1F54C5
30306045
FEF8F006
22514B1D
213918E0
FEF2F006
23002200
61636122
321B4B19
213918E0
FEE8F006
61A54B17
622561E5
225118E0
F0062139
4B14FEDF
18E02251
F0062139
4B12FED9
18E02251
F0062139
23A5FED3
18E0011B
2139221B
FECCF006
62654B0C
62E562A5
221B18E0
F0062139
60A5FEC3
BD707025
00000AA1
0000088B
000008BB
00000927
0000095D
000009AE
000009FF
00000A86
0004B510
FFA6F7FF
BD100020
4B03B510
18C02251
F844F000
46C0BD10
000009AE
4B03B510
18C02251
F83AF000
46C0BD10
000009FF
2109B507
49049101
49041840
68089000
FEA5F7FF
46C0BD07
00000A6B
200000E4
2109B507
49049101
49041840
68089000
FE95F7FF
46C0BD07
00000A74
200000E4
4B03B510
18C02209
F0064902
BD10FDDD
00000A7D
00007D24
4B03B510
18C0221B
FDD2F006
46C0BD10
00000A86
000FB5F8
00110004
00150038
FF36F006
00390006
00200002
FDC0F006
19A01BAA
F0062139
BDF8FE4D
60184B02
2A00681A
4770D1FC
20000774
68134A05
60133301
681A4B04
D0022A00
3A01681A
4770601A
20000778
20000774
68C30002
33032003
B5104383
18C96894
200060D3
D80242A1
60D16850
BD1018C0
0004B510
D0031E08
0021680A
47906812
0000BD10
4A042101
68134804
D102400B
60436003
47706011
200007E0
200007E4
4A042101
68134804
D102400B
60436003
47706011
200007D4
200007D8
0001B510
20080004
FFD4F7FF
D0032800
60042300
BD106043
FFD6F7FF
B510E7FB
00040001
F7FF2008
2800FFC5
2300D003
60436004
F7FFBD10
E7FBFFD5
7804B570
2C010005
6881D107
D0042900
F0064805
1E03FE3D
3C01D004
2C012300
68ABD800
BD700018
00008006
0004B510
42991A23
2300DD09
2B3956E3
3B41D003
2B19B2DB
3401D80A
2301E7F2
D0032A00
42585643
B2DB4143
BD100018
E7FB2300
0004B5F0
0015000E
2251B0B5
9301A80A
FD14F006
00200031
FEF8F7FF
00250029
F7FF0020
9A3AFEFD
00209B3B
FF02F7FF
23002200
F7FF0020
4A16FF0D
00204B16
FF18F7FF
35304F15
AA039B01
00380029
FD3EF002
0020A903
FF18F7FF
0029AA1F
F0020038
9B01FCCF
DD022B0E
B0352000
2251BDF0
A80AA91F
FCE0F006
2C006864
A90AD005
F7FF0020
0031FEC1
2001E7C7
46C0E7ED
BC83BFDD
00000377
20010B98
B5104770
00046801
F7FF2018
2800FF35
2300D002
72036003
2B006863
6060D102
0013E004
2A00681A
6018D1FB
B510BD10
28006840
2900D007
6800D002
E7F83901
F7FF3008
BD10FF5D
000DB570
2C006844
68A1D012
D0012D00
D1072900
42481B49
B2C94141
D1072900
E7F06824
F0060028
4241FD8F
E7F44141
BD700020
F7FFB510
BD10FFE3
6801B510
20200004
FEF4F7FF
D0022800
60032300
68637403
D1022B00
E0046060
681A0013
D1FB2A00
BD106018
0006B570
000D6800
D1042800
FEE6F7FF
00200004
F7FFBD70
0004FEFD
D0F82D00
00300029
FFB8F7FF
D1052800
F7FF0030
2800FFD1
6085D0ED
1E1A6823
0023D001
74022206
E7E46183
0005B570
0016000C
D1012900
BD702000
FF9EF7FF
D1052800
F7FF0028
2800FFB7
6084D0F4
61862302
20017403
0000E7EF
48362300
60C3B510
FED7F7FF
F0020004
4A33FD9B
D1002800
49334A32
F7FF0020
F002FFD7
4A2EFDB7
D1002800
492F4A2D
F7FF0020
F002FFCD
4A29FD61
D1002800
492B4A28
F7FF0020
F002FFC3
4A24FD2B
D1002800
49274A23
F7FF0020
F002FFB9
4A1FFDBF
D1002800
49234A1E
F7FF0020
F002FFAF
4A1AFDEB
D1002800
491F4A19
F7FF0020
F002FFA5
4A15FE23
D1002800
491B4A14
F7FF0020
F002FF9B
4A10FE4D
D1002800
49174A0F
F7FF0020
F002FF91
4A0BFCCB
D1002800
49134A0A
F7FF0020
F002FF87
4A06FE69
D1002800
490F4A05
F7FF0020
0020FF7D
46C0BD10
200089EC
00007ED3
00007ED8
00007EDD
00007EF0
00007F03
00007F07
00007F11
00007F2C
00007F47
00007F64
00007F81
00007F88
0006B570
0015000C
FF02F7FF
D1052800
F7FF0030
1E03FF1B
6084D009
2B00682B
2104DB07
618317DA
74012301
001861C2
425BBD70
210517DA
B570E7F5
000C0006
F7FF0015
2800FEE5
0030D105
FEFEF7FF
D0071E03
682B6084
23046183
23007403
330161C3
BD700018
F7FFB510
2800FEEB
7C03D004
D1012B06
BD106980
FDEAF7FF
B5F8E7FB
000F0005
D00D1E04
FCA8F006
1C46683B
0031681B
47980038
D0031E04
00290032
FB5EF006
BDF80020
0006B570
F7FF000D
1E04FE8A
2000D101
2D00BD70
6831D00A
F7FF0028
2800FFDC
2302D0F5
72236120
E7F12001
61052302
E7F97203
F7FFB570
0003FEAF
42832000
7C18D008
D82B2805
FD5AF004
0308082F
69980503
6998BD70
E7FB4240
1E18699B
2200D0F8
2001569A
D0F32A74
D0112A2B
D1102A2D
181B0002
250A2000
571C2400
39300021
2909B2C9
4368D807
18203830
E7F33301
22003301
2A00E7EE
E7D9D1DC
69D96998
FF34F004
2000E7D4
B510E7D2
FE72F7FF
D0031E03
00183310
FDAEF7FF
6803BD10
B24A7819
D0032A0D
3909DC05
D8062901
60033301
2A20E7F3
2A2FD0FA
4770D000
569A2201
D00B2A2A
D1F82A2F
1C5A6803
785B6002
2B00B25B
2B0AD0F1
E7DED1F6
60033301
1C5A6803
22016002
2A00569A
2A2AD0E5
2202D1F6
2A2F569A
3303D1F2
B570E7D7
000D0004
FFC9F7FF
68232200
569A2000
D10242AA
60233301
BD703001
0004B570
30046885
FFB9F7FF
68622300
2B2756D3
2B22D001
3201D122
22006062
568A6861
D0372A00
60601C48
D0334293
D10E2A5C
481D2201
2600568A
2E005786
42B2D003
2201D10A
2A005682
3102D024
68A16061
60A01C48
E7E0700A
E7EC3002
DD202B2F
DD032B39
DD0C2B5E
DC0C2B7A
32016862
68A26062
60A11C51
68637013
B25B781B
2B40E7EC
2B5ADD0D
001ADDF0
B2D23A2D
D9EB2A01
002868A3
60A21C5A
701A2200
2B2BBD70
E7E1D1F1
00007FE0
B5306803
681D685C
42AC2200
1C65D205
7021605D
701A685B
68433201
6042189A
6803BD30
685CB530
681D685A
D20A42AA
574D2500
D0062D00
605D1C55
574D2500
70153101
2100E7F0
685B7011
1B1B6842
604318D3
0000BD30
000DB570
21220004
D1032D00
F7FF4911
BD70FFDC
F7FF0020
2100FFC7
29005669
4B0DD012
26003501
57961E5A
D0F12E00
1E9A3302
B2527812
D1F4428A
0020215C
FFB2F7FF
E7E50031
00202122
FFACF7FF
46C0E7DF
00008006
00007FDD
7B03B57F
2B000004
F7FFD103
0006FC79
0005E035
73033B01
F7FFCD01
215BFC8D
00280006
FF2BF7FF
D0EE2800
0028215D
FF25F7FF
D11F2800
466A2300
00204669
F0007013
2800F81F
0030D0DF
FD13F7FF
D0DA2800
30084669
F0062210
215DF9D9
F7FF0028
2800FF0C
212CD106
F7FF0028
2800FF06
E7C8D1E0
33017B23
00307323
BD70B004
0006B570
000D3004
FEC5F7FF
781B6873
2B5BB25B
2B7BD013
2401D01F
D0032B27
425C3B22
B2E4415C
F7FF0030
2800FEF5
2C00D00B
2302D019
60A8702B
0030E006
FF9CF7FF
2B006803
2400D102
BD700020
702B2306
240160A8
0030E7F8
F808F000
2B006803
2307D0F1
2401E7F3
E7E4702C
7B03B5F0
0004B085
D1032B00
FC0CF7FF
E0470006
3B010005
CD017303
FC21F7FF
0006217B
F7FF0028
2800FEB0
217DD0EE
F7FF0028
2800FEAA
0020D131
FEB4F7FF
D0E31E07
0028213A
FE9FF7FF
D0DD2800
466A2300
00204669
F7FF7013
2800FF99
0039D0D4
F7FF0030
2800FCAF
0030D105
FCC8F7FF
D0C92800
46696087
22103010
F94CF006
0028217D
FE7FF7FF
D1062800
0028212C
FE79F7FF
D1CE2800
7B23E7B6
73233301
B0050030
0003BDF0
B5707800
D8292805
FB56F004
0308082D
68980503
6898BD70
E7FB4240
1E18689B
2200D0F8
2001569A
D0F32A74
D00F2A2B
D10E2A2D
181B0001
240A2000
569A2200
B2D53A30
D8062D09
33014360
E7F51810
21003301
2900E7F0
E7DBD1DE
68D96898
F82AF006
2000E7D6
B510E7D4
FC70F7FF
20000003
D0034283
00183310
FFBFF7FF
0000BD10
4A0E2101
6814B530
420C4B0D
4C0DD110
60114D0D
62DD629C
4D0D4C0C
635D631C
4D0D4C0C
63DD639C
4D0D4C0C
645D641C
181B00C0
68596818
46C0BD30
200007D0
20000058
B5056E17
4693B8B5
E93FF9F5
4D384F03
F9301D32
5A827748
7F73BF3C
75154FDD
2200B5F0
0004B085
68006841
F0044B61
2800FC93
E0B3D100
005B2380
23009300
93012508
68260028
F7FF6867
0002FFB7
0030000B
F0040039
2800FC7F
2601D03B
68134A55
D1254233
48554B54
60164955
60596018
49554854
60D96098
49554854
61596118
49554854
61D96198
49554854
62596218
49554854
62D96298
49554854
63596318
49554854
63D96398
49554854
64596418
68616820
00EB4A40
681A189B
F005685B
9A00F9DB
46949B01
60616020
B21B4463
9B009301
9300105B
D2B13D01
68676826
23002200
00390030
FC2AF004
D05B2800
4B454A44
00390030
FC18F004
D0532800
4F2F4E2E
D44F062B
68636822
93039202
4A3E2301
42196811
4B3DD120
493E483D
60DF609E
61596118
493D483C
61D96198
493D483C
62596218
493D483C
62D96298
493D483C
63596318
493D483C
63D96398
493D483C
64596418
60132301
00EB4A2C
681A189B
9802685B
F0049903
2800FBD5
0028D00F
FF20F7FF
000B0002
68616820
F97AF005
9A009B01
60616020
B2031A98
9B009301
105B3D01
E7B39300
005B2380
25089300
E7999001
B0059801
46C0BDF0
416312D0
20000780
20000788
9999999A
3FB99999
47AE147B
3F847AE1
EB1C432D
3F1A36E2
E2308C3A
3E45798E
97D889BC
3C9CD2B2
D5A8A733
3949F623
44F4A73D
32A50FFD
CF8C979D
255BBA08
64AC6F43
0AC80628
88E368F1
3EE4F8B5
2000077C
20000010
D2F1A9FC
3F50624D
9ABCAF48
3E7AD7F2
9EE75616
3CD203AF
65896880
398039D6
9631D10D
32DA53FC
81B7DEC2
25915445
7DD78B14
0AFE07B2
B08FB5F0
00199000
00150010
F004001C
498CFB57
D1002800
2200E0F2
00282300
F0040021
2800FB53
212DD006
F7FF9800
2380FD31
18E4061B
23002200
00210028
FB3EF004
D10F2800
0023002A
00210028
FCC8F004
000B0002
00210028
FB30F004
28004979
E0CBD000
0023002A
9206A806
F7FF9307
9B06FEAD
90039C07
00219001
93040018
F0049405
2409FB93
00050007
B2634E6E
93023C01
2D09B2E4
210AD90A
F0040030
210AF987
00280006
F982F004
E7EE0005
F0050038
0002FEA9
9804000B
F0059905
0004FB25
000D0030
FE9EF005
000B0002
00290020
F8A8F005
000D0004
FB66F004
F0059004
0002FE91
0020000B
F0050029
000BFB0D
F0040002
F004FC73
9B04FB57
42A618C4
2400D80B
37019B03
D00642A3
D9042F09
27010018
B2033001
250A9301
00200029
F9CAF004
D10C2900
2B009B02
0029DD09
F0040020
9902F93B
39010004
9302B24B
2300E7EC
AD08261D
AB06756B
003818F6
F004210A
3E01F9B1
70313130
210A0038
F924F004
D1F21E07
98000031
FC9FF7FF
2B009B02
73EFD023
3717001E
18FFAB06
B2763E01
1C733F01
0020D00B
F004210A
3130F993
00207039
F004210A
0004F907
466BE7EE
24177A19
222E43CB
A80643C9
54C2191B
18591823
F7FF9800
9B01FC78
DA1E2B00
98004920
FC71F7FF
241D9B01
2300425E
250A756B
18E4AB06
00290030
FA54F004
31303C01
00307021
F0040029
1E06F967
0021D1F2
F7FF9800
B00FFC58
9B01BDF0
D0FA2B00
98002165
FC3EF7FF
241D2300
250A756B
18E4AB06
00299801
FA34F004
31303C01
98017021
F0040029
B203F947
2B009301
E7DCD1F0
00007FEB
00007FEF
3B9ACA00
00007FF8
0005B5F0
B0877800
000C3801
D80A2807
F89CF004
3753292E
04250B33
68EB68AA
F7FF0008
B007FEC3
68ADBDF0
0020215B
FC06F7FF
2D00686D
0028D00C
30080021
FFDEF7FF
2D00682D
212CD004
F7FF0020
E7F0FBF7
0020215D
FBF2F7FF
68A8E7E3
F836F000
68A9E7DF
F7FF0020
E7DAFC15
002068A9
FBF5F7FF
212DE7D5
F7FF0020
68AFFBDF
230068EE
2515466A
446D7553
00310038
2300220A
FA16F004
32303D01
0038702A
220A0031
F0042300
000EFA0D
43010007
0029D1EC
68ABE7DB
490268EA
D1D64313
E7D44901
00007FFB
00008000
000CB570
217B0005
F7FF0020
686DFBB1
D0142D00
002068A9
FBD6F7FF
0020213A
FBA6F7FF
00210028
F7FF3010
682DFF81
D0042D00
0020212C
FB9AF7FF
217DE7E8
F7FF0020
BD70FB95
B5F02300
48200006
60C3B087
F7FF9101
23C8F890
005B0005
491CAA04
F7FF9304
4F1BFA33
00390028
F936F7FF
D1051E04
F7FF0028
1E04F94F
6087D00B
D01F2E00
00306829
FA61F7FF
D0022800
61A02302
9B017423
D0102B00
4C0F4B0E
23009302
A904AA02
70230028
92049403
F7FF9305
0021FFA3
F0034809
0028FD71
BDF0B007
61A62302
E7E47423
200089EC
00007FCD
00007FD2
200087EA
200007EC
00007FD8
492CB5F0
0006B0C7
FA22F7FF
00052700
2C006844
3701D002
E7FA6824
00304926
FC91F7FF
3B030003
2B0F9001
0021D907
F7FF4822
0005FF95
B0470028
2F0ABDF0
0021DD02
E7F4481E
00212287
A8020052
FE0EF005
DA1742BC
00280021
F8BFF7FF
22004918
F7FF0006
1E01F839
4816D101
221BE7DF
AB024362
003118D2
48139B01
FDAEF001
E7E53401
48112400
F7FF60C4
4908F800
F7FF0005
0006F8E3
DACB42BC
4361211B
18C9AB02
F7FF0030
3401F9F3
46C0E7F4
00007FC6
00007F95
00007F8D
00007FA8
00000A71
00007FBE
20010B98
200089EC
4983B5F0
0005B0C9
F9F4F7FF
28079002
2100D907
F7FF487F
0004FF39
B0490020
497DBDF0
F7FF0028
2151FA22
00042200
FFEAF7FE
D1011E01
E7EC4878
00284978
FA15F7FF
22002151
F7FE0006
1E01FFDD
D0E04874
00284974
F9CCF7FF
3B010003
2B029001
2100D902
E7D44870
00284970
F9C0F7FF
208C9003
43589B02
18C04B6D
FCCEF000
486C1E01
4D6CD0C5
68036828
4798689B
A9022204
F0016828
2204F96F
6828A903
F96AF001
00312251
F0016828
4863F965
F000682F
2230FDDB
00380001
F95CF001
6828A904
F9A7F001
23304F5D
A904AA1E
F7FE6838
2251FD2F
0020A91E
FCA4F005
28009000
2100D002
E7924856
2251AC33
00209900
FD50F005
23510031
68380022
FAEAF7FE
23DF9900
181BA802
18581862
23004694
57962600
199B3201
D1F94290
2B002200
4660DD1D
20005686
370D0037
DD064287
429F0038
0018DD00
1A364667
1A1B54BE
D0022B00
2A1B3201
311BD1E9
D1D82951
56E39B00
D1142B0D
483A2100
2B00E757
4660D0F3
200D5686
20001B87
DD064287
42B84258
0038DD00
18364667
181B54BE
9B00E7DE
93003301
D1E12B51
9B02208C
4358682D
271B4B25
F00018C0
0029FBC0
9B030002
F7FEA810
2500FD8D
4B274E26
18F6436E
F7FE0030
003AFDE7
0031436A
A8101912
FD9EF7FE
35019B01
D1ED429D
481F2300
F7FE60C3
491EFEEE
F7FE0004
491DFFD1
F7FF0006
2D01F8E7
E711D100
0030491A
F8E0F7FF
D1002D02
4918E70A
F7FF0030
E705F8D9
00007E39
00007E3D
00007EB2
00007E4C
00007E66
00007E5E
00007E79
00007E71
00007E87
2001623C
00007E94
200000E8
20016238
200000E4
00007EAA
00007EB7
00000AA8
20010CF8
200089EC
00007FC6
20010D28
200117D0
20012278
4976B5F0
9006B08B
F8FBF7FF
22012151
F7FE9007
1E01FEC3
D00D4871
98064971
F8EFF7FF
21512201
F7FE9008
9003FEB7
D1072800
486C0001
FDF2F7FF
00200004
BDF0B00B
98064969
FADDF7FF
3B030003
2B0B9009
2100D902
E7ED4865
98064965
FF44F7FE
00032400
28002500
7C00D009
D84C2805
FDEEF003
031A1A52
699C1403
495D69DD
F7FF9806
2300F843
90046841
29009303
9B03D045
33016809
E7F89303
69DB699A
42542500
E7EA419D
2400699E
2E002500
2300D0E5
240156F3
2B742500
2B2BD0DF
2B2DD019
3601D118
25002400
57F72700
B2FB3F30
D8122B09
00202300
220A0029
FF94F003
970417FB
9C049305
36019D05
414D1824
3601E7EA
93032300
9B03E7E4
D0BC2B00
002B0022
6998E7CA
F00369D9
0004FFC5
E7B2000D
25002400
9B03E7AF
4835000E
DD002B08
9B03E784
DB1F429E
4E322700
429F9B03
4B31DA28
001818F3
F7FE9306
2F00FCED
9B06D005
23AB6073
18F3011B
0039601E
F7FE9804
4B29FE9E
4A290001
F00518F0
3701FB4F
E7E19E06
98040031
FE91F7FE
22004923
FE0CF7FE
D1011E01
E7554821
E7CE3601
99074E20
95019400
9A089B09
F7FE0030
1E01FE17
481CD101
2500E746
60C5481B
FDCFF7FE
00044910
FEB2F7FE
9B030007
DB00429D
0031E73B
31304B0E
0038436B
F7FE18C9
3501FFBF
46C0E7F1
00007D8D
00007D85
00007DA6
00007D9E
00007F95
00007F8D
00007DB8
00007FC6
00007FA8
20010250
00000AA8
00000AD8
00000A71
00007DC2
20010CF8
00007DD1
200089EC
4D23B570
00290004
FE60F7FE
D1031E01
F7FF4820
BD70FCF5
00200029
FE56F7FE
D0312800
2B077C03
6984D12E
00204D1A
F7FE0029
2800FE4B
0029D020
F7FE0020
2300FE45
D0054298
F7FF3010
1E43F996
B2C34198
00114A11
700B3185
31FF0011
219E748B
545331FF
5453490D
5453490D
5453490D
5453490D
5453490D
480D2300
F7FE60C3
E7C6FD56
FD36F7FE
E7CD0004
00007D3C
00007D42
00007D5A
2001623C
00000229
000002B5
00000341
000003CD
00000459
200089EC
493AB5F0
0004B0A9
FF52F7FE
00074938
F7FF0020
2601F98C
D0032800
28640006
2664DD00
00204933
F981F7FF
28070005
2100D907
F7FF4830
0004FC87
B0290020
4B2EBDF0
D902429F
482D2100
492DE7F3
F7FF0020
0003F96C
90013B01
D9022B02
48292100
4C29E7E7
93036823
435D238C
18EB4B27
93020018
FA30F000
D1011E01
E7D84824
48242500
60C56823
F7FE9304
4922FCF4
F7FE0004
0029FDD7
22529005
F005A813
003DFAD9
42AB19F3
9802D914
F997F000
AB070029
F7FD9A01
4818FF8D
AA132330
6800A907
FA94F7FE
9805A913
FED4F7FE
E7E73501
9B049A03
1A9B4911
AA070020
F7FE9307
E7A7FE90
00007DE6
00007DF1
00007E39
00007E3D
FFFFFF00
00007DF8
00007E06
00007E0F
20000778
2001623C
00007E94
200089EC
00007FC6
200000E4
00007E26
490EB570
F8FFF7FF
28070005
2100D906
F7FF480B
0004FC05
BD700020
48092300
F7FE60C3
0004FC96
4368208C
18C04B06
FA5AF000
D1EF1E01
E7EA4804
00007E39
00007E3D
200089EC
2001623C
00007D68
485DB5F0
F000B08B
1E04FF41
E0B0D000
4B5A21FA
68180089
FBFEF003
38014B58
D80C4298
4A5721C0
60500609
6A034856
0A1B021B
6203430B
60942307
4C536013
F0000020
2800FEC1
E092D000
00202140
FED0F000
00202180
FEE8F000
F001484C
F001F921
484BFC79
FAA8F000
27002280
02124E49
00302100
FA32F005
4A484D47
003160EF
F0030038
4B46F893
DD044298
48452101
FB9CF7FF
2332E7E8
5437AC06
95060020
96089607
F7FE7323
6803FFF9
2B000005
2101D102
E7EB483C
F7FE493C
9003FE78
930200FB
00FA4B3A
001858D3
F0059301
9901FAB1
98030002
F948F005
D1092800
9B024A33
44634694
2B00685B
2101D10B
E7CD4830
9B024A2E
44634694
370168DB
D1DD2B00
4F2CE7F3
683A0028
47989201
0005492A
F84DF7FF
005B23C8
D00F4298
683B9A01
1A9B4926
00220028
F7FE9306
23C8FDAE
49210022
93060028
FD8AF7FE
AA044B20
23009304
70330021
60220028
96056063
FB16F7FF
001A9B07
429A4B10
0031D804
F0034818
E77DF8DF
2000E7FE
BDF0B00B
200166C4
20000008
00FFFFFF
E000E010
E000ED00
200166B0
20010B98
20016238
200007EC
200089EC
00007FFF
00007FFE
0000800B
00008023
00008056
200000A0
0000804E
20000778
00007FCD
0000803E
200087EA
00008047
4A0E4B0D
605AB510
24002280
609A0212
60DC4A0B
4B0B601A
480C4A0B
F000601A
480BFFBF
F7FE1820
4B0AFAC3
4B0A18E4
D1F6429C
46C0BD10
200089EC
200089FC
00007D38
20010A00
000082A8
200087EC
20010CF8
00000AA8
00005540
F7FEB510
BD10FB0B
005B23FA
23004358
D0024298
330146C0
4770E7FA
0004B510
21002251
F0053004
0020F945
21002230
F0053055
2300F93F
70233486
3055BD10
00034770
3385B510
2B00781B
F7FFD101
BD10FFE5
4D12B530
682BB0B3
6818466A
000C2300
466970D3
80933315
FE55F002
D0022800
B0332000
6829BD30
F0024668
2800FED6
2C00D1F6
2C01D007
466BD1F3
42437A58
B2C04158
466BE7ED
E7F87A98
200166E8
0006B5F0
000CB095
2101481F
FFD0F7FF
D1032800
00282500
BDF0B015
21512200
F7FE0020
1E05FB2B
2240D0F4
A8042100
F8EEF005
00214B15
AA049303
A8032351
F7FE3450
7822F895
701AAB10
2255234F
446B2704
4C0E701A
97006833
AA04B298
21000023
FC62F002
D1D32800
97006833
AA0CB298
21010023
FC58F002
D1C92800
F7FF0030
E7C6FF79
20016238
00007D14
000080B9
B5F00003
781B3385
0004B095
D0042B00
33860003
2D00781D
2101D13B
F7FF481F
1E05FF7D
2704D038
21002240
F005A804
6823F8A5
B2984E1A
00339700
2100AA04
FAC6F002
D1272800
97006823
AA0CB298
21010033
FABCF002
D11D2800
446B234F
2B55781B
4B0FD118
930319E2
2330A904
F7FEA803
0023F851
7812AA10
701A3354
22010020
701A3332
322F3055
F004A904
0028FFE3
BDF0B015
E7FA2500
20016238
000080B9
00007D14
481FB570
000CB092
F7FF2100
2800FF33
AD02D006
F0020028
2800FA1F
2000D002
BD70B012
F002A80A
2800FA17
261FD1F7
00034914
5C2A4033
40535CCB
3001542B
D1F62840
00294B10
00229301
A8012330
F7FEAD0E
7828F80D
F003211B
0023FA5D
7029B2C9
29003350
2239D107
2200701A
00202151
FA64F7FE
3140E7D2
E7F67019
20016238
000080B9
00007D14
0004B510
2100B096
A8012251
F81CF005
0020A901
FFAEF7FF
D0032800
0020A901
FF0AF7FF
BD10B016
2100B510
F7FF0004
2800FEDB
2000D001
F002BD10
1E01F97B
0020D1F9
FED0F7FF
B510E7F6
00042101
FECAF7FF
D0012800
BD102000
F970F002
D1F92800
00202101
FEBEF7FF
0000E7F5
2100B510
FEB8F7FF
20000003
D1054283
F0024803
4243FC6D
B2C04158
46C0BD10
200000EC
2100B507
FEA6F7FF
D00C2800
93012320
21044B05
23009300
001A2002
FB36F002
41584243
BD0EB2C0
000080B9
2101B5F0
F7FFB093
1E05FE8F
2240D01E
A8022100
FFB8F004
23042408
B2A64F0E
AA029300
2100003B
F0020030
2800FB3B
2304D10F
9300AA0A
003B2101
F0020030
2800FB31
3401D105
D1E62C10
B0130028
2500BDF0
46C0E7FA
000080B9
47704800
000080D9
0004B513
F0024814
2800F803
2000D001
A801BD16
F8D4F002
D1F81E01
F7FF0020
2800FE51
0020D1F4
FF90F7FF
D0EE2800
F7FF0020
2800FF67
0020D0E9
FF98F7FF
D0E42800
F7FF0020
2800FF6E
0020D0DF
FFA4F7FF
46C0E7DC
20000180
B5304B21
4921001A
2509001C
60113288
348C2208
001C6025
2200601A
34FF0018
24D074E2
70023086
00640018
3C975119
3CFF30FC
61C46181
004020CF
308E541A
34015019
501C3888
34014811
308E541A
38885019
480F501C
541A3401
5019308E
501C3888
3401480C
308E541A
38885019
480A501C
480A541A
21F55019
0089200F
49085058
BD30545A
2001623C
20016238
0000022A
000002B6
00000342
000003CE
0000045C
0000045A
4D05B570
3D8C4C05
3C8C0020
FDCFF7FF
D1F942AC
46C0BD70
2001623C
20016610
B51022C8
00523008
F0042100
BD10FEF9
B5100003
00083308
F0040019
BD10FE5F
2200000B
B09BB5F0
1815A806
68186A9C
40606ADE
3208685C
6D1E4074
6D5E4070
6F9E4074
6FDE4070
001E4074
683736A0
40783308
68706028
60684060
D1E32A28
9E099F08
00729B0E
93010FF8
007C4310
43220FF2
9B0F9C01
92104062
40589A0A
9A0B9202
92039011
9C029A06
9A074694
92040064
9D0C9A02
9A030FD0
43020052
0FC09803
46644320
90124060
9C0D9804
92134042
00620FE8
92054302
006A0FE0
9A054310
40724078
9A019215
0FD09014
4302005A
0FDB9801
43030040
40439802
9B039316
405A4660
92174663
9B040FDA
005B0040
9B04431A
0FDB4054
20004303
9518405D
AB109419
681A181B
685B680C
600C4054
3008684C
604C405C
40546A8C
6ACC628C
62CC405C
40546D0C
6D4C650C
654C405C
40546F8C
6FCC678C
67CC405C
34A0000C
31086825
6022406A
40536862
28286063
B01BD1D7
B5F0BDF0
6B4B6B0A
68CD688C
60CB608A
6CCB6C8A
634B630A
33B0000B
685F681E
64CF648E
6F4F6F0E
605F601E
681E3B10
670E685F
690E674F
601E694F
6E0A605F
610A6E4B
6E8A614B
660A6ECB
000A664B
3298000B
68576816
66CF668E
681E33B8
6016685F
6F8E6057
601E6FCF
6A0A605F
678A6A4B
000A67CB
32C0000B
68576816
624F620E
681E33A8
6016685F
6C0E6057
601E6C4F
3B28605F
685F681E
644F640E
6ACF6A8E
605F601E
69CB698A
62CB628A
000B000A
68163290
618E6857
338861CF
685F681E
60576016
6DCF6D8E
605F601E
6BCB6B8A
65CB658A
6D4B6D0A
654D650C
63CB638A
000BBDF0
33C8B5F0
9303B085
68CB688A
6948690C
684D680E
43984394
40684074
6048600C
6908698C
4384694F
405469C8
405843B8
6A0860C8
9001608C
9F016A48
69889002
4387690C
69C846BC
43AB9F02
46604387
61084060
9C016948
00304047
614F43A0
002F4684
698C9802
46604387
61884060
43B269C8
61CF4047
98029C01
40584054
620C9B03
31286248
D1BD428B
BDF0B005
0006B5F8
2500000C
00300021
FEA0F7FF
68E368A2
00580FD1
0FDB0052
60A34313
69236962
60E14301
07910898
0892079B
61634313
69E369A2
61214301
09110718
0712091B
61A34313
6A636A22
61E14301
095106D8
06D2095B
62234313
6AA36AE2
62614301
01110F18
0F12011B
62E34313
6B236B62
62A14301
03110D18
0D12031B
63634313
6BE36BA2
63214301
0E910198
01920E9B
63A34313
6C236C62
63E14301
05D10A58
0A5205DB
43134301
64636421
6CE36CA2
05180B11
0B1B0512
64A34313
6D636D22
64E14301
0F5100D8
00D20F5B
65234313
6DE36DA2
65614301
0D910298
02920D9B
65A34313
6E236E62
65E14301
02D10D58
0D5202DB
66634313
6EE36EA2
66214301
09D10658
065209DB
66A34313
6F236F62
66E14301
01D10E58
0E5201DB
67634313
6FA36FE2
67214301
02510DD8
0DD2025B
00224313
32804301
67E367A1
68136851
0CD8034F
035B0CC9
430B4338
60536010
68113208
0C4F6853
03C903D8
430B0C5B
68916013
433868D3
0ACF6050
05490558
430B0ADB
69116093
43386953
0E0F60D0
02090218
430B0E1B
69916113
433869D3
0B8F6150
04890498
43380B9B
61D0430B
32206193
68536811
00980F8F
0F9B0089
6013430B
689368D1
60504338
08D8074F
075B08C9
60D3430B
69136951
60904338
0A18060F
061B0A09
6153430B
69D36991
61104338
03980C8F
0C9B0389
4338430B
61D06193
00300021
FE45F7FF
00300021
FEB3F7FF
00EB4A07
6819189B
35016822
6022404A
6862685B
60634053
D0002D18
BDF8E6F0
00008110
4C37B510
33016823
68146023
4063680B
6854600B
4063684B
6894604B
4063688B
68D4608B
406368CB
691460CB
4063690B
6954610B
4063694B
6994614B
4063698B
69D4618B
406369CB
6A1461CB
40636A0B
6A4B620B
40636A54
6A94624B
40636A8B
6AD4628B
40636ACB
6B1462CB
40636B0B
6B54630B
40636B4B
6B94634B
40636B8B
6BD4638B
40636BCB
6C1463CB
40636C0B
6C54640B
40636C4B
6C94644B
40636C8B
6CD4648B
40636CCB
6D0B64CB
40636D14
6D54650B
40636D4B
6D94654B
40636D8B
6DD4658B
40636DCB
6E1465CB
40636E0B
6E53660B
40536E4A
F7FF664B
BD10FE7B
2001669C
005B23C8
58C7B5F7
000E0004
2F000015
18B8DB44
F0022168
23C8FE25
50E1005B
D01C2F00
3BFF3B29
93001BDB
33D00023
19D89301
002A9B00
D900429D
0031001A
FB5CF004
429D9B00
0021D328
9A016823
3108681B
47980020
18F69B00
2D671AED
2303D914
421E0037
0027D006
226837D0
00380031
FB42F004
68230021
681B003A
00203108
36684798
E7E83D68
D0052D00
002A0020
003130D0
FB30F004
B5F7BDF7
26C80004
00760027
91015980
28003708
0025DB1D
35D02268
21001A12
F0041828
2201FBAF
002059A3
781918EB
701A430A
23802238
5CA132FF
430B425B
682354A3
681B002A
47980039
061B2380
682351A3
685B9901
22300020
22C84798
00520038
F0042100
BDF7FB8D
4D09B570
21000006
F0020028
1E04FCAF
220AD108
00282101
FC5EF002
6033232A
BD700020
E7FB2401
200166A0
6802B510
6002430A
48022101
FC4EF002
46C0BD10
200166A0
2102B510
F7FF4801
BD10FFEF
200166B0
2108B510
F7FF4801
BD10FFE7
200166B0
6802B510
6002438A
48022101
FC32F002
46C0BD10
200166A0
2102B510
F7FF4801
BD10FFEF
200166B0
2108B510
F7FF4801
BD10FFE7
200166B0
4804B510
2102000C
FBE4F002
1E434020
BD104198
200166A0
2101B510
F7FF4801
BD10FFEF
200166B0
4D0FB570
21010006
F0020028
1E04FC4D
2210D113
42522101
F0020028
2201FB63
42522102
F0020028
0022FB5D
00282101
FBF0F002
00206034
2401BD70
46C0E7FB
200166B4
0004B530
68030015
681BB08D
4798466A
4669002A
F7FD0020
B00DF9F3
B530BD30
00150004
466AB08D
F9FCF7FD
002A6823
4669691B
47980020
BD30B00D
000CB5F7
92010005
F984F7FD
00224B1B
00280021
F8BCF7FD
27014E19
F0000030
2230F8FD
F0040021
2201FA43
00110030
F908F000
00300039
F90CF000
D1F94238
F0000030
22F3F8E7
98010001
FA30F004
2B006AE3
4B0BDA0A
00210022
F7FD0028
2200F8B0
33F29B01
BDF7701A
00224B03
00280021
F88CF7FD
46C0E7F3
00008214
200087EC
000081E4
000FB5F8
00064D19
00140028
F8BEF000
22F30039
FA08F004
21012204
F0000028
2701F8CD
00280039
F8D0F000
D1F94238
F0000028
2230F8AF
00200001
F9F4F004
00214D0B
0030002A
F84CF7FD
DB062800
0022002B
00300021
F86FF7FD
0023BDF8
00214A04
F7FD0030
E7F7F84F
200087EC
00008214
000081E4
000EB5F8
00074C12
00150020
F882F000
22510031
F9CCF004
21014A0E
F0000020
2601F891
00200031
F894F000
D1F94230
F0000020
2230F873
00280001
F9B8F004
0029002A
4B040038
F83BF7FD
46C0BDF8
200087EC
80000004
00008214
000FB5F8
00140006
F8D6F7FD
003A4B14
00300039
F80EF7FD
00284D12
F850F000
22300039
F996F004
21014A0F
F0000028
2701F85B
00280039
F85EF000
D1F94238
F0000028
2251F839
00200001
F982F004
34502100
56610030
FFD0F7FC
BDF87020
00008214
200087EC
80000001
4C08B510
F0000020
22F3F821
F0042100
0020F9FD
F81EF000
21002230
F9F6F004
46C0BD10
200087EC
68184B01
46C04770
200166C8
68184B01
46C04770
200166D0
68184B01
46C04770
200166CC
47704800
C0000080
060020C0
00004770
00894B02
600A18C9
46C04770
44A00000
00894B02
680818C9
46C04770
44A00000
00894B02
600A18C9
46C04770
44A20000
00894B02
680818C9
46C04770
44A20000
00004770
4A064B05
4A066013
4B066013
601A4A06
4A074B06
4770601A
44A00200
200166C8
200166D4
200166D0
44A00280
200166CC
44A00300
B510000A
418A1E51
21014802
FFBCF7FF
46C0BD10
200087EC
2101B510
F7FF4802
0600FFBB
BD100F00
200087EC
2102B510
F7FF4801
BD10FFB1
200087EC
408A2201
3A01B510
48022102
FF9EF7FF
46C0BD10
200087EC
0004B510
48052101
FF9CF7FF
68222301
40930A00
40183B01
46C0BD10
200087EC
2101B510
F7FF4802
230FFF8D
BD104018
200087EC
2400B5F0
9001B085
1C9DAB02
4F174B16
AA025D1B
3203702B
00292301
F7FC6838
AE03FEE7
2301A902
68383103
F7FC0032
2300FE97
490E0018
22005CF7
B2FF3701
D8002F02
005F5DCA
330140BA
B2C04310
D1F12B03
9A01782B
18D33401
7018335C
D1D12C1B
BDF0B005
00008282
200000E4
0000827C
0004B570
FF8AF7FF
28076020
2300D814
001A2101
000D3801
4205409D
001AD000
2B203301
65A2D1F7
F7FF0020
2240FFAF
48022101
FF2AF7FF
46C0BD70
200087EC
2400B5F0
B085000B
000D9203
00260022
90013351
27039302
9901782B
335C18CB
9300781B
9B002103
40B3400B
9B00431A
089B3602
231F9300
D106401E
48120021
F7FF3180
0032FF03
3F013401
D1E92F00
35019B02
D1DE42AB
4C0B0021
00203180
FEF4F7FF
2B009B03
2208D004
00202101
FEECF7FF
98012408
FF5EF7FF
D1014220
E7F846C0
BDF0B005
200087EC
2202B510
48022101
FEDAF7FF
46C0BD10
200087EC
000DB5F0
0006B0E3
F7FF0014
4B20FFEF
002918EF
00302201
F7FF3551
42BDFFA1
481CD1F7
FEB4F7FF
00012240
F0044668
2503F803
201F2200
466FA925
009B1113
58FB0056
40F34006
3B01402B
2600B2DB
D8012B02
5CF64E10
3201548E
D1EC2AF3
001823F2
1AC556CE
D1022E00
3B011AD5
4E0AD2F8
6830AA10
F7FC23F3
6830FDE1
00222351
F7FCA910
0028FE1D
BDF0B063
00000A71
200087EC
0000827F
200000E4
0005B5F8
2400000E
FFA0F7FF
00222751
3A200039
419A1E53
B2D24361
00281871
F7FF3401
2C21FF4D
BDF8D1F1
001DB5F0
B0910004
F7FF9201
0029FFE3
F7FF0020
2101FEBF
F7FF0020
2502FE9D
F7FF0020
4228FED3
46C0D101
0020E7F8
FEA8F7FF
00201E83
25009300
FEB6F7FF
68232201
DD0542AB
40A90011
D1024208
E7F73501
AF032500
49212218
1D260038
FF84F003
21002251
F0040030
2300F811
18E25CF9
71113301
D1F92B18
27016DA3
2001469C
427F2300
DB09459C
411A002A
42020039
0001D100
771118E2
E7F33301
23002501
426D2001
409A0002
00299F00
D1004217
001A0001
32353301
2B2054A1
4C08D1F2
0031AA09
33316820
FD52F7FC
9A01231B
6820A909
FD8EF7FC
BDF0B011
00008264
200000E4
0015B570
00204C06
FDDCF7FF
22680029
FF38F003
21012210
F7FF0020
BD70FDED
200087EC
4805B570
0015000C
FDCAF7FF
0001002A
F0030020
BD70FF25
200087EC
F7FFB510
2220F8B1
48022101
FDD4F7FF
46C0BD10
200087EC
B5114B13
23006818
A906B0FF
3A305CC2
3301545A
D1F92BF3
22F34B0E
23009305
9202AC43
91009303
0021A805
FA3CF000
68194B09
56CA2300
3A305CE0
D1054290
2BF33301
2001D1F7
BD12B07F
E7FB2000
2000017C
000092E4
20000178
B0F5B500
21002230
F003A802
4B0FFF73
930EA80E
FFBAF7FF
490D2290
A80E0052
FB58F7FF
A80EA902
FBA3F7FF
4A092300
58C9A902
91015898
D1054281
2B303304
2001D1F6
BD00B075
E7FB2000
000082A8
0000838F
000084B0
B0DFB500
2100221C
F0034668
A807FF47
FE26F7FF
230E490B
6809466A
F7FFA807
4B09FEF5
2300681A
56C84669
428856D1
3301D105
D1F72B1B
B05F2001
2000BD00
46C0E7FB
20000174
20000170
B0BEB510
22F3AC01
00202100
FF20F003
46684B0B
F7FF9300
0022FD15
46684909
FC1DF7FF
4A082300
56D156E0
D1054288
2BF33301
2001D1F8
BD10B03E
E7FB2000
0000824C
000084E0
00008510
B08EB510
2230AC02
00202100
FEFAF003
A8014B0B
F7FF9301
0022FCEF
A8014909
FBE8F7FF
4A082300
5C995CE0
D1054288
2B303301
2001D1F8
BD10B00E
E7FB2000
0000824C
00008510
000084E0
4C17B5F0
44A54B17
930024FA
00A44B16
25009301
FF1EF003
51E8AF02
2D303504
AD0ED1F8
0039002A
AE4B4668
FBCBF7FF
00390032
F7FCA801
2300FE60
56F256E9
D10A4291
2BF33301
3C01D1F8
D1E02C00
23892001
449D009B
2000BDF0
46C0E7F9
FFFFFDDC
0000824C
00007D14
25FAB5F0
B0D94B1C
4B1C9301
930200AD
F0032600
4B1AFEE9
D5044018
38012304
4318425B
38013001
AC1BB240
D01D2802
360155A0
D1EC2EF3
0032AE03
A8020021
F7FCAF0F
003AFDF7
A8010021
FB76F7FF
5CF12300
42915CFA
3301D10B
D1F82B30
2D003D01
2001D1D4
BDF0B059
55A32300
2000E7DF
46C0E7F8
0000824C
00007D14
80000003
24FAB5F0
B0B14B16
4B169301
930200A4
F0032500
211BFEA7
F962F002
390DAF1B
350155E9
D1F42D51
002AAD03
A8020039
F7FCAE0F
0032FDCC
A8010039
FDC7F7FC
5CE92300
42915CF2
3301D108
D1F82B30
2C003C01
2001D1DC
BDF0B031
E7FB2000
0000824C
00007D14
24FAB5F0
B0B94B14
4B149300
930100A4
F0032500
AF02FE73
350451E8
D1F82D30
002AAD0E
A8010039
F7FCAE23
0032FDAB
46680039
FDA6F7FC
56E92300
429156F2
3301D108
D1F82B51
2C003C01
2001D1E0
BDF0B039
E7FB2000
0000824C
00007D14
4C16B510
44A52252
2100AC01
F0030020
4B13FDF7
68194A13
F003A86D
4B12FD5F
68194812
4468221B
FD58F003
F7FFA816
0022FCC9
A816A96D
FD34F7FF
681A4B0C
56E02300
428856D1
3301D106
D1F82B51
4B082001
BD10449D
E7FA2000
FFFFF3D8
20000174
00000A71
20000170
00000C0A
2000016C
00000C28
F7FFB510
2800FE99
211AD104
4A294B28
E00731FF
FEB6F7FF
D1062800
4B26218D
00494A24
F7FC4825
F7FFFA47
2800FE33
4B23D103
211C4A1F
F7FFE7EA
2800FE57
4B20D103
218E4A1B
F7FFE7EB
2800FF9D
4B1DD103
211E4A17
F7FFE7DA
2800FEB9
4B1AD103
218F4A13
F7FFE7DB
2800FEE7
4B17D103
21204A0F
F7FFE7CA
2800FF21
4B14D103
21904A0B
F7FFE7CB
2800FF4D
4B11D103
21224A07
F7FFE7BA
2800FDCD
4B0ED103
21914A03
2001E7BB
46C0BD10
000082B4
00008603
000082D9
000082C8
000082ED
000082FE
00008309
00008315
0000832F
00008349
00008365
00008381
0016B5F0
B0892280
91070004
21010052
001F480B
FB70F7FF
21002018
91059004
9A119910
92039102
68239A0E
695D9200
003B0032
00209907
B00947A8
46C0BDF0
200087EC
0004B5F0
AD07B0C5
93059204
22F4000E
00282100
FD26F003
9A4F994E
92039102
9A4D994C
92019100
00296823
0020685F
22F39B4A
994E47B8
91029A4F
22F39203
92006823
681D9501
9A040031
00209B05
B04547A8
2300BDF0
7802B510
005C5CC1
330140A1
2B10430A
0010D1F8
B530BD10
24032300
005A0005
002A40D5
54CA4022
2B103301
BD30D1F6
0014B570
1C56000D
002036FF
FFDFF7FF
C5013410
D1F842A6
0000BD70
4C0CB570
00200005
F7FF000E
0032FAE7
00280001
FFE6F7FF
22802580
00202101
FAF6F7FF
2101042D
F7FF0020
4228FAF9
BD70D1F9
200087EC
000CB570
1C4E0015
002136FF
3410CD01
FFBFF7FF
D1F842A6
0000BD70
0006B5F0
001D0014
9103B085
93009B0A
93012300
D10242AB
42A39B00
6833D818
689B990B
001F0030
9B0D9A0C
481547B8
FAB0F7FF
00029903
F7FF0030
9A03FFD3
18D39B0A
9A009303
1AA49B01
E7DD419D
9B019A00
00290020
FFD8F001
D00E431A
990B6833
0030689C
9B0D9A0C
480547A0
FA90F7FF
00029903
F7FF0030
B005FFB3
46C0BDF0
200087EC
68C6B5F0
0005B091
2E0024E2
6847D019
D0162F00
24007803
23039301
40139A01
D80E2B01
42A16881
2202D037
22205E83
DA0942A3
F0030030
2400FBC3
334268EB
0020701C
BDF0B011
F003A802
2214FBB9
A80A0039
FBB4F003
AB0F2216
2335701A
189BAA02
7912466A
701A2137
AA022336
701C189B
A8020032
FC8AF000
68EA21E0
78133240
39C0400B
315F438B
7013400B
78512301
7053430B
24E2E7CF
B5F0E7D1
00046886
20E2B099
D07C2E00
2F006967
7825D079
D0072D03
2B0068E3
2D02D073
7923D128
D0282B00
20E26921
D06A2900
D8682D05
D1202D03
5EA32202
DA1C2B00
46682220
FB6CF003
2215466B
77DA3301
466A466B
77DD3302
32038863
0A1B77D3
77D3AA01
2220E018
E02F0039
781A21D0
E046400A
2D0520E2
2220D845
466868E1
FB4EF003
D1DF2D02
2B007923
2204D0DC
A8086921
FB44F003
7A32466B
77DA3305
7832466B
77DA3306
2027466B
33077872
210077DA
44682219
FBC4F003
D1D22D03
5EA32202
DBCE2B00
69212220
F003A810
003AFB27
46682160
FC0AF000
69632201
78593340
705A430A
2A027822
8861D1BE
D8BB290F
781C200F
4322321E
43824001
2000430A
B019701A
B5F0BDF0
B0996883
26E20004
D0122B00
2B006943
20C0D00F
1C9A2180
00408FD2
40020049
428A2500
3340D008
39FF785A
705A438A
00303612
BDF0B019
696268A3
5D525D5B
68E24053
35015553
D1F52D20
69272600
D0EE42B7
6961002A
F0034668
466BFADB
33012212
466B77DA
33027822
466A77DA
32038863
AA0177D3
77D30A1B
6863466A
7A193205
77D12027
7819466A
77D13206
466B785A
77DA3307
22190031
F0034468
68A1FB4B
A810002A
FAB4F003
2160003A
F0004668
E7BCFB97
28007800
4B0AD111
600B6208
604B4B09
60CB4B09
608B4B09
618B4B09
610B4B09
614B4B09
61CB4B09
20F04770
46C0E7FC
00004419
00004449
00004495
0000444D
000045B1
00004521
00004575
000045ED
2800B510
0008D103
F926F000
20E1BD10
0000E7FC
4C11B573
00062204
4668000D
F0030021
1D21FA73
A8012204
FA6EF003
2D0423D0
002AD110
00304669
FA40F003
42982300
002AD008
0030A901
FA38F003
280023D0
3307D100
BD760018
000092FC
000CB510
F906F001
431C7903
F913F000
F0000020
1E04F94C
F000D001
0020F931
0000BD10
B570794B
000E0005
2B0020F0
4C07D10B
2B0068A3
F000DC08
7973F8F6
230160E3
60A32000
BD70622C
E7F93301
200166D8
47702000
0006B570
0014000D
F8D8F001
79432203
4A0C702A
18D1011B
68495898
B2C9B2C0
F8D6F000
21000030
FFBEF7FF
D1051E06
B2E03401
F0000029
0006F94E
F8F4F000
BD700030
200166D8
0017B5F7
000E9001
F8B4F001
7943883A
22009200
803A6A85
24ED9A00
D0202A00
011B4A19
684918D1
B2C95898
F000B2C0
3CECF8AB
DD242D00
D1032C00
24007833
E00E803B
98012101
FF8AF7FF
D1161E04
F0000030
7830F94F
D8042803
F8C0F000
002034E4
9B00BDFE
D9034298
F8B8F000
E7F624ED
1C713801
F000B2C0
3D01F942
2C00E7D8
E7D9D1ED
200166D8
0005B573
F870F001
79432200
466A9201
22041C94
80220006
011B4A0D
589818D1
B2C06849
F000B2C9
F000F869
8CB0F8A1
F8E2F7FE
A9010022
F7FF0028
0003FF9B
2B0020F0
8821D103
F7FFA801
BD76FF1D
200166D8
0004B510
F846F001
4A0B7943
18D1011B
68495898
B2C9B2C0
F846F000
21000020
FF2EF7FF
D1051E04
F0002002
0004F880
F866F000
BD100020
200166D8
0004B510
F828F001
4A0B7943
18D1011B
68495898
B2C9B2C0
F828F000
21000020
FF10F7FF
D1051E04
F0002001
0004F862
F848F000
BD100020
200166D8
1E04B510
6883D010
60833B01
DC0B2B00
4A0668C3
18D1011B
68495898
B2C9B2C0
F806F000
60A32300
BD102000
200166D8
B5104770
FE66F7FE
FE6CF7FE
B510BD10
FE68F7FE
FE5EF7FE
FE78F7FE
F7FE2001
F7FEF86D
BD10FE7B
2800B510
F7FED00D
F7FEFE6D
2800FE87
F7FED1FB
2001FE53
F85CF7FE
FE6AF7FE
F7FEBD10
F7FEFE43
2800FE79
E7F0D0FB
F7FEB510
2001FE57
F84CF7FE
FE3EF7FE
F7FE2001
F7FEF847
BD10FE31
F7FEB510
2050FE49
F83EF7FE
FE28F7FE
B243BD10
0004B570
DA2E2B00
FE20F7FE
26012508
FE40F7FE
2B00B263
F7FEDA28
0030FE17
F7FE3D01
0064F827
FE18F7FE
0030B2AD
F7FEB2E4
2D00F81F
F7FED1EA
25FAFE2B
FE04F7FE
F7FE2001
F7FEF815
00ADFE07
FE34F7FE
D10C1E04
F7FE2001
F7FEF80B
0020FE19
F7FEBD70
E7CFFE0D
FE0AF7FE
3D01E7D5
2D00B2AD
24EAD1EA
B5F8E7EF
000F0005
20EA2400
42ACB2E6
5D38D008
FFB5F7FF
28003401
2E00D0F6
20F7D000
B5F8BDF8
26080007
FDD0F7FE
25002480
FDD4F7FE
F7FD2001
F7FEFFDD
2800FDFF
4325D000
FDE6F7FE
D0022C01
F7FD2001
3E01FFD1
2E000864
0038D1EA
FF60F7FF
BDF80028
0004B510
F7FF2001
7020FFDA
B5F8BD10
000E0005
0004000F
B2E43C01
D1092C00
F7FF0020
3D01FFCC
1976B2ED
F7FF7030
BDF8FF5D
F7FF2001
7038FFC2
E7EB3701
0192B5F0
188BB0D1
93079006
428B9B07
B051D101
AA10BDF0
00130008
780C3040
784C70DC
788C709C
78CC705C
701C3104
42883304
0015D1F3
685335C0
001E2007
41C62712
41F80018
407008DB
6A564043
6B946810
181B1980
20110026
002041C6
41F83701
40700AA4
18184060
32046410
D1E24295
001A2300
32889806
92015882
AA089801
33045098
D1F42B20
9B092500
93019C08
980C9B0A
9B0D469C
9B0E9303
9B0F9302
9B0B9305
230B9304
00020007
3B0541DF
407A41DA
33130007
4B2B41DF
595E4057
58EAAB10
18B29B02
43839E03
40734006
18D218BA
00269B05
930518D3
9B049A05
189F3504
2202230D
002341DE
002241D3
26164073
405341F2
93044662
9E014663
9A014056
401A4026
40569B04
9B05199E
9B0218F2
46639305
23809304
429D005B
9B01D119
930A9208
9A069B03
9B02930E
930F9409
930B4663
970C2300
3288900D
A8086814
58C046A4
90013304
C2014460
D1F52B20
9B03E758
93029003
00389B01
469C9401
E79E0014
00009304
0004B510
21002288
F840F003
4A090023
601A3388
34A44A08
4A08605A
4A08609A
4A0860DA
4A08611A
4A08615A
4B08619A
BD106023
6A09E667
BB67AE85
3C6EF372
A54FF53A
510E527F
9B05688C
1F83D9AB
5BE0CD19
2540B5F7
68400004
0016000F
42951A2D
0015D900
18203008
0039002A
FF7AF002
18F36863
D8012B3F
BDF76063
33080023
00200019
93012201
FF00F7FF
099E1B73
00321979
93000020
F7FF3601
6823FEF7
199E01B6
9900233F
43999A00
1949401A
60626026
98011879
FF54F002
B5F8E7DD
25090004
6840223F
426D6823
1A2D18C6
60631C43
18234015
30093241
18206026
000F721A
21001D2A
FFCEF002
00F66863
196318ED
731A0E32
735A0C32
739A0A32
0021002A
60623208
73DE0020
31080992
FEBCF7FF
34A80023
22033388
54B96819
0A096819
3A016019
3304D2F8
42A33704
BDF8D1F3
000EB570
00140005
4668B0B0
FF5CF7FF
00290032
F7FF4668
4668FF81
F7FF0021
2000FFB4
BD70B030
4C04B510
F0006820
2800FD45
6020D100
46C0BD10
200166E8
4D13B573
682B0006
D0012B00
FFECF7FF
4B114C10
60230021
00304B10
F0006063
2800FD15
602CD113
2B037873
2201D10F
00016823
33019200
F0003212
2800FA1B
2107D105
681A682B
438B7853
BD767053
200166E8
200166F0
20016720
200166F8
2503B570
40059C04
2C0020E2
2D03D00A
2000D008
80202607
2D024033
00D2D003
80234313
00C9BD70
0212430B
0000E7F8
0004B510
2A0020E2
4B17D016
685B681B
7858685B
D1102800
D0092C01
D0032C00
D0072C02
E00720E2
60132358
E0032000
E7FA2340
60112120
2C01BD10
2C00D0F8
2C02D005
2907D1EE
2324D803
2380E7ED
2908E7EB
23D0D102
E7E6005B
234820E2
D9E2290F
46C0E7E8
200166E8
4D18B5F0
0011000C
B0B3682A
68160007
D0022B00
290020E2
466AD017
70D78094
2F032400
2B1FD113
466BD904
1D982220
FE60F002
46690022
F0000030
2800FBD8
6829D103
F0004668
B033FCA4
2F02BDF0
2B03D1F0
466BD9EE
1D982204
FE4AF002
E7E73401
200166E8
B0B2B570
466A0015
68334E0F
70D0681B
00188091
F0004669
1E04FBC8
6831D111
F0004668
1E04FC82
2D00D10B
466BD009
2B06799B
466BD905
1DD92204
F0020028
0020FE25
BD70B032
200166E8
B5100002
2A0020E2
2100D003
F7FF0008
BD10FFD1
4C0DB5F0
6823B0B3
000E0007
210022C8
681D4668
FE9CF002
4669466B
70DF0028
F000809E
2800FB9C
6821D103
F0004668
B033FC4C
46C0BDF0
200166E8
2100B510
F7FF2080
BD10FFDD
2100B510
F7FF2081
BD10FFD7
4E1AB5F0
6833001D
681FB0B3
2303000C
466A0011
70D04003
22148094
D9062B01
2B0324E2
2220D11F
D0004210
466B1892
F0021D98
4669FDD1
F0000038
1E04FB70
6831D111
F0004668
1E04FC16
2D00D10B
466BD009
2B22799B
466BD905
1DD92220
F0020028
0020FDB9
BDF0B033
200166E8
2100000B
0002B510
F7FF0008
BD10FFC1
4E12B570
6833B0B2
0005466A
23006818
70D34669
F0008093
1E04FB5A
6831D111
F0004668
1E04FBE8
466BD10B
2B23799B
2D00D10A
466BD005
1DD92220
F0020028
0020FD8B
BD70B032
E7FA24E6
200166E8
B0BBB5F0
A8400006
7800C810
90039404
24E29804
D02E2800
28049803
2820D001
4F16D129
6838AC04
90056800
1900200E
00309000
FEA0F7FF
D11C1E04
2B209B03
3360D101
AB04431E
89DBAD08
98050029
80AB70EE
FB1DF000
D10C1E04
00286839
FBA1F000
D1061E04
AB042117
18C99A03
F0029804
0020FD49
BDF0B03B
200166E8
B0BBB5F0
AB409305
AD0E881B
91079006
21009203
00282214
F0029304
2220FDC7
A8212100
FDC2F002
9B032000
9009AF09
428324E2
9B05D064
D0614283
93012320
9300AB19
00030002
F7FF0001
1E04FF99
2205D156
A81AA91B
FD5AF002
0028A921
FF5EF7FF
D14B1E04
0001AE29
00302244
FD9CF002
A80AAB21
950B940A
960D930C
F922F7FF
D13B1E04
003A4B1F
466B803B
99047C1B
9B0470BB
0A1B2002
230470FB
FE78F7FF
D12B1E04
0001AD13
00282208
FD7CF002
8A1B466B
806B0028
60ABAB19
612F9B05
230260EB
702B616E
F94BF7FF
D1151E04
93012320
9A079B03
99069300
20820003
FF4CF7FF
D1091E04
9A030003
5CD25D99
9903404A
330154CA
D1F62B20
B03B0020
46C0BDF0
00000215
B093B5F0
23009307
91069005
93090015
D9022802
B01320E2
9B05BDF0
D1022B02
2B0F9B06
9B18D8F6
D1012B00
E7F22000
2B009B07
AA09D0EE
98059906
FDEEF7FF
D1E82800
9A099B18
4293195B
2320D8E2
00060004
9303096F
429E9B18
9B03D2E6
D10A2B20
017B9A09
2B1F1AD3
2307D805
08A41974
3B03401C
99039303
9101B2E3
9100A90A
9906B2FA
F7FF9805
2800FEF3
00FBD1C1
009B191B
429D0001
1AE9D900
9B039A18
1A5B1B92
429A9204
9304D900
9A049B07
AB0A1998
F0021859
9B04FC5F
9B0318F6
D1012B20
E7C53701
E7C33401
4C0DB5F0
6823B0B3
000E0007
210022C8
681D4668
FCDCF002
4669466B
70DF0028
F000809E
2800FA12
6821D103
F0004668
B033FA8C
46C0BDF0
200166E8
4C19B5F0
6823001E
468C0007
0011B0B3
20E2681D
D01E2A00
4662466B
B27F70DF
2F00809A
2220DA19
F0021D98
2200FC21
D0064296
32202026
44680031
FC18F002
46692201
F0000028
2800F9EC
6821D103
F0004668
B033FA5C
466BBDF0
1D982204
FC06F002
E7EC2200
200166E8
B085B5F0
A80A0004
7805C840
2E0020E2
2D04D015
2D20D001
270ED111
9700446F
F7FF0020
2800FD27
2D20D109
2380D101
8839431C
00322300
F7FF0020
B005FFAB
0000BDF0
2620B5F0
AD0CB0CF
91059004
93039202
AB542214
00282100
F002881F
0032FC63
A8252100
FC5EF002
21000032
F002A82D
0032FC59
A8352100
FC54F002
9B022000
24E29007
D0704283
42839B03
AB1DD06D
96019300
00020003
F7FF0001
1E04FE2D
2205D163
AE3DA91F
F002A81E
0021FBED
00302244
FC36F002
0019AB25
94080028
930A9509
F7FF960B
1E04FDE7
A808D14D
FFB6F7FE
D1481E04
AA044B25
0A3B8193
739773D3
AA072304
20020039
FD0EF7FF
D13A1E04
0001AD11
00282208
FC12F002
2702806F
60ABAB1D
00289B03
AB0760EB
612B702F
F7FE616E
1E04FFE2
250AD125
18EDAB04
00039500
99049A05
F7FF0038
1E04FC9F
23C2D119
703BAF17
0038882B
AB1D807B
9B029318
9319961C
931AAB2D
931BAB35
F849F7FF
D1061E04
78388879
68FA693B
FF14F7FF
00200004
BDF0B04F
00000215
B087B5F0
23009303
91020007
93050014
D8572802
290FD101
9B0CD854
D1022B00
B0072000
9B03BDF0
D04B2B00
43239B0C
D147079B
9902AA05
F7FF0038
2800FC77
9B0CD1EF
191B9A05
D83B4293
09660005
0F6406E4
D11A2C00
1B5B9B0C
D9162B1F
D1012F00
D01F2E02
93012320
B2F29B03
9300195B
23009902
F7FF0038
2800FF05
3520D1CF
9B0C3601
D8E342AB
2F00E7C8
2E02D10A
2C05D108
3401D106
2C083504
3601D1F1
E7EE2400
91012104
B2E39903
91001949
9902B2F2
F7FF0038
2800FEE5
E7AED0EB
E7AC20E2
2300B51F
93030004
429C20E2
AA03D01D
00180019
FC26F7FF
D1162800
22109B03
93003B10
00010023
F7FF3310
2800FF85
0023D10B
78193354
FE6EF7FF
D1042800
78213455
F7FF3001
B004FE67
0003BD10
290020E2
2000D002
7048700B
00004770
180BB5F7
23009301
42889801
7013D103
70530A1B
7808BDF7
46842408
46662001
40350005
41B51E6E
005B0BDF
42BDB29B
4D05D002
B29B406B
3C010040
2C00B2C0
3101D1ED
46C0E7E0
FFFF8005
1C41B510
38027840
180AB2C0
FFD2F7FF
2315BD10
78CB708B
2B03B510
3324D106
704B0008
FFECF7FF
BD102000
2A00230B
2307D1F6
2330E7F4
708BB510
00083B29
F7FF704B
2000FFDD
2317BD10
708BB510
00083B10
F7FF704B
2000FFD3
2303BD10
78CA2016
4013B510
2B017088
231BD806
704B0008
FFC4F7FF
BD102000
2B0320E2
0693D1FB
2347D501
2327E7F2
231BE7F0
708BB510
00083B14
F7FF704B
2000FFB1
2302BD10
708BB510
00083305
F7FF704B
2000FFA7
2320BD10
708BB510
00083B19
F7FF704B
2000FF9D
2312BD10
3B0B708B
78CB704B
2B7FB510
2327D90B
2A00704B
784BD002
704B3320
F7FF0008
2000FF89
230BBD10
B573E7F2
78030005
3B02AE01
0032B2DC
00200001
FF54F7FF
5D2B7832
429A20E5
192CD105
78637872
D100429A
BD762000
22007803
D1162B04
2B077843
D80BD01E
D0192B01
D00E4293
2B0332D2
3204D00B
D0082B05
E00622E1
2B0F22F4
D804D003
2B083206
0010D1F6
22F34770
D0FA2B11
2BFF3A1F
E7EDD0F7
E7F422D1
E7F222D7
0005B570
20E2000C
D0102D00
D00E2900
29006809
6863D00B
D0082B00
F7FF7868
2800FF06
6861D103
F0000028
BD70F8A6
B5100003
2B0020E2
6858D002
F868F000
B5F0BD10
9001B085
000E6848
F848F000
D1261E04
68709B01
0019785A
F838F000
D11E1E04
F7FD2032
2329F8D5
9B019300
1D9D22C0
00282100
FA26F002
1D9FAB02
003A23C0
68700029
F000803B
1E04F825
2032D011
F8BEF7FD
3B019B00
2B009300
6870D1E5
F829F000
B0050020
4263BDF0
34E6415C
883CE7F5
D9F82C03
F7FF0028
1E04FF60
0028D1ED
FF72F7FF
E7E80004
6903B510
BD104798
6943B510
BD104798
6983B510
47980004
D10528D0
F7FD38B7
69A3F891
47980020
B510BD10
479869C3
20010004
F886F7FD
BD100020
47706840
B5100003
2B0020E2
7818D003
F7FE6A59
BD10FEBB
000DB570
68400004
FE8CF7FE
2000682B
686B60A3
68AB60E3
68EB6123
692B6163
69AB61A3
696B6223
6A2B61E3
BD706263
0004B510
A901B08A
FFE2F7FF
A8016861
479868A3
D1042800
00209B09
68E36263
B00A4798
0003BD10
20E2B510
D0072B00
D0052900
0008781A
604B700A
FFE0F7FF
0000BD10
0016B570
D0112900
DD0F2A00
2500000C
280DE004
3401D008
D00542AE
FADEF000
70203501
D1F4280A
BD700028
E7FB2500
F7FFB510
BD10FFE5
6804B5F8
2C000007
F002D01F
7823F899
18C02500
075B7843
2604D518
F002E008
F002F88F
7823F88D
784318C0
D00D421E
195D00AB
006D7823
34013B30
2C00195D
F002D1ED
7823F87D
2500DEFF
603C0028
46C0BDF8
6843B570
00056804
DA06429C
F0007B28
686BFAA7
429C3401
BD70DBF8
464FB5F0
46D64646
B08EB5C0
4690AF01
4B2F003A
CB324689
6819C232
6011AD06
A90E791B
002B7113
701A2230
42993301
4643D1FB
2B00699B
464BD102
D0382B0A
469A2300
E0002600
46490026
FB3EF000
1C745C7B
280055AB
4653D1F6
D0022B00
552B232D
23001CB4
552B0028
F9B8F002
60184643
3C01691B
D0032B00
695B4643
D01C2B00
F0005D28
3C01FA5D
4643D2FA
2B00691B
4643D003
2B00695B
B00ED105
4690BC1C
46A24699
4640BDF0
FF9AF7FF
2800E7F5
3B09DAC4
469A4240
4640E7C2
FF90F7FF
F0005D28
3C01FA3D
E7DED2DA
00009554
B5F0B40F
46D64646
B5C0464F
AA12B08A
AC03CA08
4A7A9201
46909302
D00B2B00
28007818
2825D008
F000D00F
9B02FA21
93023301
D1F32B00
BC1CB00A
46994690
BCF046A2
B004BC08
22004718
61A22120
61226162
60226062
32034692
46912604
49687321
1C5A60A1
2A009202
785DD01C
FFC4F001
5DC31C6F
D018421E
2B004653
2D30D134
7325D100
2B009B02
A802D034
FF14F7FF
9B022201
61226060
D0032B00
93023B01
D1DE2B00
781B2300
F001DEFF
464AFFA5
40135DC3
D1002B01
3D253520
D80D2D53
00AD4643
469F595B
61A32301
210A9B01
92011D1A
00226818
FF26F7FF
2B009B02
3301D0A8
E7979302
F7FFA802
9B02FEE5
E7D160A0
61233301
781B2300
9B01DEFF
1D1A681D
2D009201
0028D003
F8FCF002
69236020
D14C2B00
2B00782B
68A3D0DE
D1032B00
68A3E7DA
D0082B00
60A33B01
35017828
F99AF000
2B00782B
6923D1F3
D0CB2B00
2B006963
0020D0C8
FEDEF7FF
9B02E7C4
9B01E7A4
78181D1A
F0009201
E7BBF985
78189B02
D0322868
286ED92B
2872D036
200DD131
F978F000
33019B02
E78D9302
61A32301
21109B01
92011D1A
00226818
FEC8F7FF
2201E7A0
46929B02
2301E77E
9B026163
2025E77A
F95EF000
6963E794
D01A2B00
2B00782B
68A3D0C5
D1B32B00
2861E7BE
2007D107
F94EF000
2008E7D4
F94AF000
F000E7D0
E7CDF947
F000200D
200AF943
F940F000
0020E7C6
FE8CF7FF
2B00782B
E7A0D195
00009404
00007FFF
2800B510
2400D00B
601C4B09
6002688B
68CB6083
4B0760C3
20006043
217DBD10
F0004805
2201F929
601A4B01
46C0E7F5
20016724
11111111
00009568
2800B570
2300D021
68454C14
4B146023
D10C429D
D0042901
D10F2902
2B0168C3
6803D10C
390400C9
600A18C9
21A3E005
F000480C
2301F903
BD706023
480921A5
F8FCF000
60232301
21A2E7F7
F0004805
2201F8F5
601A4B01
46C0E7EF
20016724
11111111
00009568
2800B510
2300D01D
68424C12
4B126023
D10C429A
D0042901
D1102902
2B0168C3
6803D10D
390400C9
680818C9
21C1E006
F000480A
2301F8CF
60232000
21C4BD10
4806E7F6
F00021C0
2201F8C5
20004B01
E7F3601A
20016724
11111111
00009568
2800B510
2300D01F
68424C13
4B136023
D10E429A
D0042901
D1122902
2B0168C3
4B0FD10F
6803469C
00C94461
680818C9
21DBE006
F000480B
2301F89D
60232000
21DDBD10
4807E7F6
F00021DA
2201F893
20004B01
E7F3601A
20016724
11111111
1FFFFFFF
00009568
2800B570
2300D023
68454C15
4B156023
D10E429D
D0042901
D1112902
2B0168C3
4B11D10E
6803469C
00C94461
600A18C9
21F7E005
F000480D
2301F869
BD706023
480A21F9
F862F000
60232301
21F6E7F7
F0004806
2201F85B
601A4B01
46C0E7EF
20016724
11111111
1FFFFFFF
00009568
00024B07
42818819
8A19D004
42912000
4770D002
E7FC0018
00183310
46C0E7F9
200001B4
2800B510
2200D00C
601A4B10
881C4B10
D00E428C
428C8A1C
6042D013
BD102002
218F480C
F828F000
4B082201
601A2000
0019E7F5
01122200
685A189B
FEE0F7FF
0019E7ED
31103201
46C0E7F5
20016724
200001B4
00009570
4802B510
F82EF000
46C0BD10
40600000
0001B510
F0004801
BD10F81B
40600000
B5104B05
2B00681B
4798D000
681B4B03
D1FD2B00
46C0BD10
200166EC
200001B0
60184B01
46C04770
200166EC
46C04770
0004B510
34082208
421A6823
6041D1FC
46C0BD10
22010001
680B3108
D0FC421A
B2C06800
46C04770
4671B402
00490849
00495C09
BC02448E
46C04770
08432200
D374428B
428B0903
0A03D35F
D344428B
428B0B03
0C03D328
D30D428B
020922FF
0C03BA12
D302428B
02091212
0B03D065
D319428B
0A09E000
428B0BC3
03CBD301
41521AC0
428B0B83
038BD301
41521AC0
428B0B43
034BD301
41521AC0
428B0B03
030BD301
41521AC0
428B0AC3
02CBD301
41521AC0
428B0A83
028BD301
41521AC0
428B0A43
024BD301
41521AC0
428B0A03
020BD301
41521AC0
09C3D2CD
D301428B
1AC001CB
09834152
D301428B
1AC0018B
09434152
D301428B
1AC0014B
09034152
D301428B
1AC0010B
08C34152
D301428B
1AC000CB
08834152
D301428B
1AC0008B
08434152
D301428B
1AC0004B
1A414152
4601D200
46104152
E7FF4770
2000B501
F8F0F000
46C0BD02
D0F72900
4770E776
430B4603
2200D47F
428B0843
0903D374
D35F428B
428B0A03
0B03D344
D328428B
428B0C03
22FFD30D
BA120209
428B0C03
1212D302
D0650209
428B0B03
E000D319
0BC30A09
D301428B
1AC003CB
0B834152
D301428B
1AC0038B
0B434152
D301428B
1AC0034B
0B034152
D301428B
1AC0030B
0AC34152
D301428B
1AC002CB
0A834152
D301428B
1AC0028B
0A434152
D301428B
1AC0024B
0A034152
D301428B
1AC0020B
D2CD4152
428B09C3
01CBD301
41521AC0
428B0983
018BD301
41521AC0
428B0943
014BD301
41521AC0
428B0903
010BD301
41521AC0
428B08C3
00CBD301
41521AC0
428B0883
008BD301
41521AC0
428B0843
004BD301
41521AC0
D2001A41
41524601
47704610
0FCAE05D
4249D000
D3001003
40534240
469C2200
428B0903
0A03D32D
D312428B
018922FC
0A03BA12
D30C428B
11920189
D308428B
11920189
D304428B
D03A0189
E0001192
09C30989
D301428B
1AC001CB
09834152
D301428B
1AC0018B
09434152
D301428B
1AC0014B
09034152
D301428B
1AC0010B
08C34152
D301428B
1AC000CB
08834152
D301428B
1AC0008B
D2D94152
428B0843
004BD301
41521AC0
D2001A41
46634601
105B4152
D3014610
2B004240
4249D500
46634770
D300105B
B5014240
F0002000
BD02F805
D0F82900
4770E716
46C04770
1C104684
468C4662
46631C19
46C0E000
F000B51F
2800FD53
2100D401
BD1F42C8
F000B510
4240FCAB
BD103001
F000B510
2800FD45
2000DB01
2001BD10
46C0BD10
F000B510
2800FD3B
2000DD01
2001BD10
46C0BD10
F000B510
2800FCCD
2000DC01
2001BD10
46C0BD10
F000B510
2800FCC3
2000DA01
2001BD10
46C0BD10
D1112B00
D10F2A00
D1002900
D0022800
43C92100
B4071C08
A1024802
90021840
46C0BD03
FFFFFF5D
4668B403
9802B501
F888F000
469E9B01
BC0CB002
46C04770
46CEB5F0
04154647
002E0C2D
0407B580
0C3F0C14
0C034699
435D437E
43634367
0C34197F
469C19E4
D90342A5
025B2380
44C44698
4343464B
0C254351
44650436
04240C36
195B19A4
00201859
4690BC0C
BDF04699
2200B570
00044B0C
F7FF000D
2800FFA5
0020D104
F0010029
BD70FAEB
22004B06
00290020
FF9CF000
FAE2F001
061B2380
4460469C
46C0E7F1
41E00000
0005B570
2200000C
00282300
F7FF0021
2800FF67
0028D104
F0000021
BD70F80D
061B2380
002818E1
F806F000
000B0002
42502100
E7F24199
2200B570
000D4B0B
F0000004
F7FFFCFD
0006FFBD
FAE8F001
4B072200
FCF4F000
000B0002
00290020
FF60F000
FFAEF7FF
BD700031
3DF00000
41F00000
464FB5F0
46D64646
0004B5C0
000DB082
46984691
D82F428B
4641D02C
F0014648
0029FB15
00200006
FB10F001
469C1A33
469A3B20
E076D500
4652464B
001F4093
4662464B
001E4093
D82842AF
4653D025
41BD1BA4
DA002B00
2200E07B
92002300
23019301
40934652
23019301
40934662
E0189300
D9D04282
23002200
93019200
2B009B0A
601CD001
9800605D
B0029901
4690BC1C
46A24699
42A3BDF0
2200D9D7
92002300
46639301
D0E92B00
469807FB
08724641
087B430A
E00E4666
D10142AB
D80C42A2
419D1AA4
19242001
2100416D
18243E01
2E00414D
42ABD006
3E01D9EE
416D1924
D1F82E00
99019800
19004653
2B004169
002BDB23
40D34652
4664002A
001C40E2
00154653
DB2D2B00
46570026
003340BE
46670026
003240BE
41991A80
91019000
4662E7AC
1A9B2320
40DA464A
00134661
408A4642
431F0017
4662E780
1A9B2320
4666002A
0023409A
431340F3
4662E7D4
21002320
22001A9B
92019100
40DA2201
E7809201
46622320
1A9B0026
002F40DE
466646B0
464640B7
4333003B
46C0E7C8
464FB5F0
46D64646
0309000C
0A49B5C0
005E0F47
031F4339
469C0FDB
0A7B0065
431F0F57
0FE40D6D
46A10D76
46B800C0
1BAB00D2
D07B4564
DD5F2B00
D0002E00
003EE0A4
D1004316
1E5EE112
D0002E00
1A87E19E
42B84643
25014180
42401AC9
020B1A09
E131D400
0A4E0249
D1002E00
0030E16E
FA0AF001
3B080003
DD002B1F
2220E161
1AD20039
40D1409E
430E409F
DD00429D
1B5DE151
2B1F1C6B
E17CDD00
1AC92120
0030003D
4088408F
1E7940DD
0031418F
43282207
250040D9
403A4307
D0092A00
403B230F
D0052B04
42BB1D3B
427F41BF
001F19C9
D400020B
1C6AE226
05554BC6
429A0D6D
E106D100
08FF4AC4
0753400A
433B0252
E08E0B12
D0002B00
1C6BE0B8
0D5B055B
DC002B01
1A87E130
42B84643
1ACB41B6
1B9E4276
D5000233
003BE14C
D1A14333
24002200
E0702500
DC002B00
2E00E0E5
E083D100
42B54EAF
2680D060
43370436
2B3846B8
E13EDC00
43134643
1E7A001F
183F4197
41804287
18094240
D400020B
4BA4E0B0
429D3501
E0C3D100
087B4AA2
2101400A
431F400F
07D30851
431F2207
E799403A
42B54E9B
2680D038
43370436
2B3846B8
E0DCDD00
DC002B1F
001EE130
3E204647
46BC40F7
D0042B20
1AF32640
409E4646
00174332
1E7A4663
431F4197
2B00E0CC
E204D100
43134643
E159D100
08C0074B
23804318
031B08C9
D0084219
08ED4645
D104421D
08D04643
43080759
0F420029
4D7F00C9
00C04311
08CA074B
08C0497C
428D4303
0312D068
0B12056D
21000D6D
00180312
0D0A0B13
431A0512
052D4B76
432B4013
07E4005B
4323085B
BC1C0019
46994690
BDF046A2
4316003E
1E5ED012
D0002E00
1887E100
41804287
42404441
25011809
D533020B
E7852502
00334664
00104641
E7C7001D
D0002D00
000CE0DA
D0F34304
D1001C5C
4C5DE19F
D10042A6
43DBE12F
DD002B38
2B1FE166
E183DD00
00052420
000F1AE4
40D940DD
464340A0
1A5B40A7
41A01E44
432F4698
1A174338
419242BA
42524643
46641A99
E6CA0035
403A2207
D0002A00
074BE6F6
494808CA
433B08FF
D196428D
43110019
E19ED100
03092180
0312430A
4D410B12
0015E78F
23002200
2B00E78B
E0C7D000
055F1C6B
2F010D7F
E0F1DC00
42AB4D39
E0B9D100
000A1885
41894285
42494442
22071851
086D07CF
0849432F
001D403A
2207E6C2
1AED4930
403A4031
003EE6BC
40863828
E69F2700
F0010038
3020F89B
4643E68E
001F4313
41971E7A
42B81BC7
42404180
E6781A09
003B000E
43134306
D1612D00
D0002E00
2B00E0F4
E11BD100
00394664
E7390010
42BB4F1A
0033D07A
0030E6FF
40E83D1F
D0032B20
1ACB2140
4337409E
419F1E7B
43072207
2100403A
E7892500
46431A17
41B642BA
42761A59
46641B8E
2B1FE64E
E0ADDD00
46472620
40B71AF6
001746B9
40DF46B2
433E464E
46560037
1E5640B2
431741B2
40DA4642
E6AE1889
000007FF
FF7FFFFF
800FFFFF
46472620
40B71AF6
001746B9
40DF46B2
433E464E
46560037
1E5640B2
431741B2
40DA4642
E7991A89
42A64C7F
2480D05B
425B0424
E7274321
D10C2E00
D1002B00
4664E0CB
00100039
E6D74D77
42BB4F76
0033D018
2B00E675
074BD014
431808C0
08C92380
4219031B
08FCD007
D104421C
08D00779
46E14308
464C0021
00C90F42
00C04311
E6B94D68
2200001D
E6C02300
D15B2D00
4305000D
E6E2D100
D1001C5D
4D61E0B0
D01F42AE
2B3843DB
2B1FDC71
E096DD00
000F2520
40AF1AED
000746B9
40DF46AA
433D464D
4655002F
40D940A8
41A81E45
43074488
429718BF
42514192
00354441
4664E63A
46410035
E6850010
4303000B
D0002D00
2B00E663
4643D0F5
D1004313
1887E67A
41804287
44412207
18094240
020B403A
E6D5D400
35014B43
E5C94019
E6690038
4647001E
40F73E20
2B2046BC
2640D004
46461AF3
4332409E
46630017
41971E7A
E602431F
42AE4D36
2580D0CA
425B042D
E7A64329
1E414308
E6A64188
D1002B00
1A87E648
42B84643
1ACB41B6
1B9E4276
D54B0233
46431A17
419242BA
42521A59
22071A89
403A4664
4301E592
1E79000F
E79D418F
000F001C
40E73C20
D0032B20
1AE32440
43084099
41881E41
E67C4338
24002200
1A17E625
42BA4643
1A594192
1A894252
00354664
4641E543
4D140010
2280E610
03122400
001DE680
3D20000F
46BC40EF
D0032B20
1AEB2540
43084099
46630007
41871E78
E769431F
42971887
4441419B
18C9425B
E5A30035
4333003B
2207D0CE
403A0031
2300E652
E5F4001A
000007FF
FF7FFFFF
464FB5F0
46D64646
B5C04684
4E194680
030F0318
0B00004D
4682005C
0D6D0B3F
46910FC9
0FDB0D64
42B52001
42B4D00A
42A5D003
4557D101
BC1CD00C
46994690
BDF046A2
433E4666
42ACD1F7
4654D1F5
D1F24314
45C82001
4299D1EF
2D00D007
4663D1EB
0038431F
41B81E47
2000E7E5
46C0E7E3
000007FF
464FB5F0
46D64646
B5C0004D
0FC9030E
492C468A
005C031F
0B364680
46910D6D
0D640B3F
428D0FDB
428CD01E
2D00D016
4330D11E
2C004684
433AD101
4662D023
D01A2A00
D029459A
20024651
40083901
BC1C3801
46994690
BDF046A2
43110039
2002D0E5
E7F44240
D1FA4330
D00F42AC
D10F2C00
D0E7433A
2201E00C
43933B01
30010018
4663E7E5
2B002000
E7DBD0E1
D1E6433A
D1D7459A
DCD542A5
DB0542A5
D8D142BE
2000D008
D2D242BE
23014650
43983801
E7CC3001
D8C545C8
45C82000
E7C6D3F4
000007FF
464FB5F0
46D64646
B5C0004D
0FC9030E
492E468A
005C031F
0B364680
46910D6D
0D640B3F
428D0FDB
428CD018
2D00D011
4330D118
2C004684
433AD11E
4663D11C
2B002000
4651D030
39012002
38014008
0039E02A
D0EA4311
E0252002
D1FB4330
D02642AC
D1262C00
D124433A
20024651
40083901
E0173801
2A004662
459AD00F
42A5D1E1
42BEDB05
D019D8DD
42BE2000
4650D20A
38012301
30014398
2201E004
43933B01
30010018
4690BC1C
46A24699
433ABDF0
459AD1D0
42A5D1C5
E7E0DCC3
D8C045C8
45C82000
E7EDD3E3
000007FF
4657B5F0
464E46DE
B5E04645
00064683
0048030F
4692B087
0B3F001D
0FCC0D40
D1002800
4BDEE06F
D0384298
00FF2380
431F041B
433B0F73
4BDA9301
46992700
469B2300
448100F6
0069032B
46520B1B
0D494698
29000FED
E085D100
42994BD0
E073D100
00DA4643
041B2380
46524313
0F5248CC
43134684
20004652
00D24461
00214489
91004069
2101468C
468A4449
D9002F0F
49C4E090
59CF00BF
465B46BF
9301433B
E16AD000
27082302
46812600
E7C9469B
46580032
46619B01
28029100
E075D100
D1002803
2801E1FE
E12CD000
27002300
25002600
0D2A033F
48B30B3F
433A0512
051B4002
9A004313
07D1005B
430B085B
00190030
BC3CB007
46994690
46AB46A2
465BBDF0
9301433B
E12FD100
D1002F00
0038E1A5
FD94F000
3B0B0003
DD002B1C
221DE196
465A1AD3
40DA0001
3908465E
0013408F
433B408E
4B9C9301
1A1B2700
23004699
E77D469B
46534641
4993430B
44E1468C
D0002B00
2202E11A
43172002
E78C2200
D1004313
4643E10D
D1002B00
4640E181
FD64F000
3A0B0002
DD002A1C
0001E172
39084643
4698408B
1A9A231D
40D34653
4643001A
46524313
4649408A
49821A08
44814689
E7682000
27004B7B
E78E2600
04120C14
00110C12
04360C37
43790C35
468C0028
4360002E
46834460
00214356
46800C30
43794658
91024440
D9064584
21804688
468C0249
464144E0
04369102
0C360C01
468B0400
0C1E1981
0C1B041B
00199103
468C4379
43750028
46A84465
0C054358
43774445
D90342A9
02492180
4467468C
468C0C29
04000039
042D0C00
4461182D
910544AB
91044659
040F9901
0C080C3F
43510039
46904342
468C0002
468B0C09
437C4362
445C4444
D90345A0
02492180
44424688
46880C21
04094661
468C0C09
43590039
43704343
0C0F437E
042418F6
446419BE
468C4442
D90342B3
025B2380
44404698
46619B02
9B044698
44430437
45AB469B
426B41AD
9905040D
468C0C2D
4467197F
46A818FD
192D465D
41A442A5
42644693
44C346A4
428F44DC
459841BF
4593419B
45A44192
425B41A4
431F427F
42520C36
19BF4264
18BF4322
18384662
0DD20243
43139903
430A026A
41821E50
0DED4661
024E432A
01D94332
E0B3D400
08502601
43024032
433207DE
4C22085B
2C004454
0751DD62
200FD009
28044010
1D10D005
41924290
189B4252
01D90002
2480D504
00E44819
44544003
42844818
E727DD00
025B075E
0B1F08D2
43160563
E6B20D5B
46992300
27043301
469B2600
2303E664
46819701
469B270C
2201E65E
43172001
E6762200
20032303
4643431F
46C0E671
000007FF
FFFFFC01
00009580
800FFFFF
FFFFFC0D
000003FF
FEFFFFFF
000007FE
27802300
033F9300
4B432600
9B01E683
46A40032
E6704658
E66E46AC
99012780
4239033F
423BD02D
431FD12B
0B3F033F
00169500
E66E4B38
1B2D2501
DD002D38
2D1FE666
4835DC40
4450001C
40820016
40EE4084
41821E50
43144334
076240EB
220FD009
2A044022
0022D005
42941D14
42404180
021A181B
2301D53E
26002700
2780E649
033F9B01
033F431F
94000B3F
E6404B21
465A0003
409A3B28
92012600
4658E66D
FBEEF000
E6573020
46520003
409A3B28
22000013
4650E693
FBE2F000
E67B3020
E75046CA
001E201F
1B044240
2D2040E6
4C12D003
40A34454
1E50431A
43324182
27002607
D0094016
2300200F
00144010
D1B92804
075E0022
0B1F025B
431608D2
E6062300
033F2780
033F431F
00160B3F
E5FE4B00
000007FF
0000041E
0000043E
4657B5F8
4645464E
000C46DE
B5E00309
0F460A49
4331005F
0FDB031E
469B0A76
43330F53
00654EC8
0FE400C0
0D6D00D2
468146A2
469C0D7F
42B74690
E0B9D100
2601465B
469B4073
45A31BEE
E083D100
DD632E00
D0002F00
4663E0B1
D1004313
1E73E123
D0002B00
1A86E1BA
42B04663
25014180
42401AC9
020B1A09
E147D400
0A4B0249
46434698
D1002B00
4640E189
FB66F000
3B080003
DD002B1F
2220E17C
1AD20030
40D04641
00024099
430A409E
DD00429D
1B5DE16A
2B1F1C6B
E194DD00
00102120
1AC90035
40DA408E
40DD4088
418E1E71
22070011
25004328
40324306
D0092A00
4033230F
D0052B04
42B31D33
427641B6
001E1989
D400020B
1C6AE23D
05554B91
429A0D6D
E119D100
08F64A8F
0757400A
43370252
E09B0B12
D0002E00
1C6EE0C5
0D760576
DC002E01
4667E148
1BCB1A86
41BF42B0
46B8427F
4643001F
003B1AFF
021B46B8
E15FD500
D19A4337
24002200
E0792500
DC002E00
2F00E0FA
E08DD100
429D4B78
2380D067
041B4667
46BC431F
DC002E38
4663E152
1E5A4313
181E4193
41804286
18094240
D400020B
4B6DE0BE
429D3501
E0D2D100
08734A6B
2101400A
431E400E
07D30851
431E2207
E7954032
4316001E
E745D000
4B62E740
D03A429D
46672380
431F041B
2E3846BC
E0EBDD00
DC002E1F
0033E13A
3B204667
003B40DF
D0052E20
1BBF2740
40BE4666
46904332
1E724646
43334196
2B00E0DA
E214D100
43134663
E168D100
074E2380
08C908C0
4306031B
D0084219
08C04660
D1044218
00014663
075E08D2
00F34316
00C94699
4D440F72
464B4311
4B4208DE
4337074F
429D08CA
E06ED100
056D0312
0D6D0B12
03122100
0D0A0B13
431A0512
052D4B3B
432B4013
07E4005B
4323085B
00190038
4690BC3C
46A24699
BDF846AB
43134663
1E73D011
D0002B00
1886E107
41804286
42404461
25011809
D537020B
E77B2502
4661003E
00354691
465CE7C5
D0002D00
000BE0E1
D0F34303
D1001C73
4B21E1AC
D100429F
43F3E13A
DD002B38
2B1FE16F
E18CDD00
000E2520
40AE1AED
000646B0
40DE46AA
43354645
4655002E
40A840D9
1E454663
1A5B41A8
4330469C
42B21A16
46634192
1A994252
E6B4003D
40322207
D0002A00
4B0BE6E4
074F08F6
08CA4337
D000429D
003BE790
D1004313
2380E1A6
431A031B
0B120312
E7894D02
22000015
E7852700
000007FF
FF7FFFFF
800FFFFF
D0002E00
1C6BE0C7
0D76055E
DC002E01
4DC8E0F0
D10042AB
1885E0B9
4285000A
44624189
18514249
07CE2207
432E086D
40320849
E6A9001D
1AED49BF
22074011
E6A34032
38280032
26004082
0030E686
F9DCF000
E6733020
43134663
41931E5A
42B01AC6
42404180
E65C1A09
4667000E
43174306
D15E2D00
D0002E00
2F00E0F3
E11ED100
4661465C
E72C4691
42BE4FA9
001ED07B
0010E6F1
40E83D1F
D0032B20
1ACB2140
4316409A
419E1E73
43062207
21004032
E7832500
46631A16
418042B2
42401A59
46981A0B
E632465C
DD002E1F
2720E0AB
469A1BBB
46574663
469940BB
464F0013
431F40F3
4657003B
1E5740BA
431341BA
40F24662
E6981889
1BBB2720
4663469A
40BB4657
00134699
40F3464F
003B431F
40BA4657
41BA1E57
46624313
1A8940F2
4B83E79C
D05F429F
042D2580
43294273
2E00E720
2F00D10C
E0D0D100
4661465C
4D7B4691
4F7AE6CD
D01C42BE
E665001E
D0182F00
074E08C0
20804306
030008C9
D0084201
08DC4663
D1044204
46DA0021
075E08D2
00F34316
24014699
00C94653
43110F72
4D6A401C
001DE6AB
27002200
2D00E6B4
000BD159
D1004303
1C73E6D6
E0B2D100
429F4B62
43F3D01E
DC6F2B38
DD002B1F
2520E097
1AED000E
46B040AE
46AA0006
464540DE
002E4335
40A84655
1E4540D9
448C41A8
18B64306
41924296
44614251
E625003D
4661003D
E6784691
4303000B
D0002D00
2B00E655
4663D0F5
D1004313
1886E66D
41804286
42404461
22001809
D400020B
4B46E6D0
40193501
46B1E5B2
0033E65D
3B204667
003B40DF
D0052E20
1BBF2740
40BE4666
46904332
1E724646
43334196
4B39E5EF
D0CB429F
042D2580
43294273
4308E7A8
41881E41
2F00E6A2
E63CD100
1A864663
42B01ACF
425B419B
46981AFB
D54E021B
46631A16
419242B2
42521A59
465C1A89
E57B2200
000E4301
418E1E71
001DE79F
3D20000E
46B040EE
D0042B20
1AEB2540
43084099
46484681
1E414643
43184188
2200E674
E6172400
46631A16
419242B2
42521A59
003D1A89
4661E525
4D154691
2280E601
03122400
001DE679
3D20000E
46B040EE
D0042B20
1AEB2540
43084099
464E4681
1E714643
431E418E
1886E767
419B4296
425B4461
003D18C9
4647E58C
D0CE4337
46412207
E6494032
003A2700
46C0E5E6
000007FF
FF7FFFFF
4D14B530
004B030A
0D5B0B12
24000FC9
DD1142AB
42A34C10
2480DC10
43220364
1AE44C0E
DD0C2C1F
1AC3480D
001340DA
2900425C
001CD100
BD300020
18CC4B09
4D09E7FA
46AC40E0
409A4463
43030013
46C0E7EE
000003FE
0000041D
00000433
00000413
7FFFFFFF
FFFFFBED
1E04B510
F000D025
4B14F82D
055B1A1B
280A0D5B
380BDD12
22004084
0B240324
00102100
0D0A0324
05120B24
4C0C4322
4022051B
005B4313
BD100859
00210002
40913215
210B000A
40C41A08
0B240324
2300E7E6
22002400
46C0E7E2
0000041E
800FFFFF
2301211C
4298041B
0C00D301
0A1B3910
D3014298
39080A00
4298091B
0900D301
A2023904
18405C10
46C04770
02020304
01010101
00000000
00000000
2900B510
F7FFD103
3020FFDD
1C08E002
FFD8F7FF
46C0BD10
681B4B04
2B006B5B
4B03D100
589822EC
46C04770
200001D4
20000600
2900B082
2A00D00A
2B00D00B
7813D00B
7810600B
41981E43
4770B002
2A00A901
2000D1F3
2002E7F8
E7F54240
2A03B530
0003D91C
079B430B
7804D00F
429C780B
2301D117
5CC4E005
5CCB1C5D
D110429C
4293002B
2000D1F7
6803BD30
42A3680C
3A04D1EB
31043004
D8F62A03
D1E42A00
1AE0E7F1
46C0E7F0
2A0FB5F0
000DD937
000C4305
07AD0003
0015D135
092D3D10
1836012E
68273610
6867601F
68A7605F
68E7609F
60DF3410
42B33310
240FD1F3
012D3501
40141949
2C031945
2300D91D
50EE58CE
1AE63304
D8F92E03
3C042303
340108A4
401A00A4
1909192D
D0052A00
5CCC2300
330154EC
D1FA4293
0005BDF0
D1F52A00
0005E7FA
0022E7F2
46C0E7F8
4288B5F0
188BD90A
D2074298
2A001E53
5CCAD003
3B0154C2
BDF0D2FB
D8092A0F
2A000005
2300D0F9
54EC5CCC
42933301
E7F2D1FA
4305000D
0003000C
D12907AD
3D100015
012F092D
3710183F
601E6826
605E6866
609E68A6
341068E6
331060DE
D1F342BB
3501240F
1949012D
19454014
D9112C03
58CE2300
330450EE
2E031AE6
2303D8F9
08A43C04
00A43401
1909192D
E7C6401A
E7C60005
E7C20022
0783B5F0
1E54D046
D0422A00
0002B2CE
E0022503
3C01001A
1C53D33B
422B7016
2C03D1F8
22FFD92D
0215400A
042A4315
2C0F4315
0027D916
093F3F10
46B4013E
001A001E
44663610
60556015
60D56095
42B23210
220FD1F8
013F3701
401419DB
D90E2C03
08B61F26
46BC00B7
1D1F001A
C2204467
D1FC42BA
36012203
199B00B6
2C004014
B2C9D005
7019191C
429C3301
BDF0D1FB
00030014
46C0E7C3
B5104B09
4A09681C
682034A8
4B086861
FB18F7FE
23002201
41591880
60616020
08400048
46C0BD10
200001D4
4C957F2D
5851F42D
B5704602
0792430A
4D1ED12A
C80401EE
1B54C908
40344394
B2D0D017
1A40B2D9
43010621
B290D110
1A40B299
43010421
0210D10A
0A000219
1A400A09
43010221
0E10D102
1A400E19
429ABD70
BA10D0DF
4288BA19
2001D901
2000BD70
BD7043C0
780B7802
31013001
D0092A00
D107429A
780B7802
31013001
D0012A00
D0EF429A
BD701AD0
01010101
0004B510
D00A0783
2B007803
2203D023
7803E002
D01C2B00
42103001
6802D1F9
490F4B0E
439318D3
D10F420B
68023004
18D34B0A
420B4393
3004D108
4B076802
439318D3
D0F1420B
3001E000
2B007803
1B00D1FB
2000BD10
46C0E7FC
FEFEFEFF
80808080
29000002
7803D00C
D0092B00
E0021841
2B007803
3001D002
D1F94288
47701A80
E7FC2000
D0042900
D8042AFF
700A2001
20004770
238AE7FC
20016003
E7F74240
732F2E2E
6F6D6275
656C7564
746F692F
2D632D61
6867696C
61772D74
74656C6C
6372732F
746F692F
64612F61
73657264
2E736573
00707063
41564E49
5F44494C
41524150
4554454D
00000052
5A31769C
60FF8996
EB7BAFB0
C521FF26
F3DBB791
AF6862A8
865B38FD
B74451C9
56097F74
55F957FA
57805420
A1961410
51504F4E
55545352
59585756
4241395A
46454443
4A494847
004D4C4B
00FFFFFF
FF01FFFF
FF00FFFF
01FF0000
01FFFF00
FF0100FF
FFFF0101
FF0000FF
00FF0100
000000FF
00010000
0001FF00
01000100
FFFF0001
01FF0001
FF01FF01
00000100
01000101
000101FF
01010101
00000001
A5CE8964
9F007669
1484504F
3ADE00D9
0C24486E
50979D57
79A4C702
48BBAE36
A9F6808B
AA06A805
A87FABDF
5E69EBEF
4B9D12C9
3E00ECD3
2908A09F
75BC01B2
184890DC
A12F3AAE
F3498E04
91775C6C
53ED0116
540D500B
50FF57BF
BCD3D7DF
00000000
00000000
000004E5
00000907
00000649
00000755
3939394B
39393939
00000039
00000000
00000000
00000D5D
67616C66
6C660073
20736761
7779656B
2064726F
20746F6E
6E756F66
656B0064
65537065
6E496465
004D4152
6F727265
65672072
6172656E
676E6974
6E617220
206D6F64
64656573
766E6900
64696C61
75727420
72546B6E
61736E61
6F697463
6E69006E
696C6176
72622064
68636E61
6E617254
74636173
006E6F69
656D6974
6D617473
6E690070
696C6176
72542064
73657479
72726500
6120726F
63617474
546F5468
6C676E61
69660065
49747372
7865646E
6D756E00
00726562
61766E69
2064696C
65646E69
65730078
69727563
69007974
6C61766E
73206469
72756365
20797469
6576656C
6573006C
65727563
64616552
61727544
6E6F6974
79656B00
766E6900
64696C61
79656B20
00646920
68747561
73616820
6E692068
696C6176
6E690064
696C6176
75622064
656C646E
68736148
766E6900
64696C61
63657320
74697275
76654C79
61006C65
65726464
6E497373
00786564
276E6163
65722074
76206461
64696C61
65657320
6E690064
696C6176
75612064
69006874
6365736E
20657275
646E7562
6148656C
72466873
656D6761
7000746E
00737361
6C696166
74796200
6F547365
74697254
6E695373
00656C67
74697274
426F5473
73657479
676E6953
7000656C
6B00776F
61636365
3438336B
74796200
6F547365
74697254
6E615273
526D6F64
61657065
00646574
74697274
426F5473
73657479
646E6152
65526D6F
74616570
74006465
65747972
426F5473
6E696769
6E615274
526D6F64
61657065
00646574
69676962
6F54746E
74797254
61527365
6D6F646E
65706552
64657461
6F727400
00616B69
6C727563
766E6900
64696C61
6E696D20
67696557
614D7468
74696E67
00656475
206F6F74
796E616D
61727420
6361736E
6E6F6974
6E690073
696C6176
72742064
73657479
646F6300
72650065
00726F72
000A7325
5C5C2222
0C660862
0D720A6E
4E000974
49004E61
6E69666E
00797469
74002D65
00657572
736C6166
756E0065
72006C6C
69656365
20646576
206F6F74
796E616D
74796220
6A007365
206E6F73
6F636564
676E6964
736E7520
65636375
75667373
7564006C
69746172
25006E6F
0A0A0D73
6E75000A
776F6E6B
6F63206E
6E616D6D
65730064
616C4674
74007367
48747365
77647261
41657261
6C656363
74617265
006E6F69
656E6567
65746172
646E6152
65536D6F
67006465
72656E65
41657461
65726464
64007373
776F506F
67697300
6172546E
6361736E
6E6F6974
E6803700
AD68493D
C022D8E5
23C3FC13
561B5D84
B605E79F
ECFE0600
B10D5A14
1233B2E3
CCF04156
366F9C60
B2F3E730
BD2BB7FD
A540942E
83B50AB0
B1015B65
3E31DF43
7290A09A
165FDF02
F4648E40
000000D4
00000000
00000001
00000000
00008082
00000000
0000808A
80000000
80008000
80000000
0000808B
00000000
80000001
00000000
80008081
80000000
00008009
80000000
0000008A
00000000
00000088
00000000
80008009
00000000
8000000A
00000000
8000808B
00000000
0000008B
80000000
00008089
80000000
00008003
80000000
00008002
80000000
00000080
80000000
0000800A
00000000
8000000A
80000000
80008081
80000000
00008080
80000000
80000001
00000000
80008008
80000000
00000000
00000000
000030C1
00002BD5
00002BC5
5A31769C
60FF8996
EB7BAFB0
C521FF26
F3DBB791
AF6862A8
865B38FD
B74451C9
56097F74
55F957FA
57805420
A1961410
A5CE8964
9F007669
1484504F
3ADE00D9
0C24486E
50979D57
79A4C702
48BBAE36
A9F6808B
AA06A805
A87FABDF
5E69EBEF
00000000
00000000
00003479
000033D3
000034F1
0000354D
000033F1
000033B5
00010000
01000001
01FF0000
01FFFF01
000101FF
00000000
FF020301
41390001
45444342
49484746
4D4C4B4A
51504F4E
55545352
59585756
0000005A
00000000
00000000
00003A1D
00003A41
00003A5D
74736574
7479625F
6F547365
74697254
00292873
662F2E2E
2F616770
74736574
7070632E
73657400
72745F74
54737469
7479426F
29287365
73657400
656B5F74
6B616363
28343833
65740029
505F7473
2928576F
73657400
75635F74
29286C72
73657400
79625F74
54736574
6972546F
61527374
6D6F646E
74002928
5F747365
74697274
426F5473
73657479
646E6152
29286D6F
73657400
72745F74
73657479
69426F54
746E6967
646E6152
29286D6F
73657400
69625F74
746E6967
72546F54
73657479
646E6152
29286D6F
73657400
72745F74
616B696F
FF002928
4EFFFFFF
387DF23C
66D55A38
4D7177E3
92EA2925
3D548C52
BA5C6EDB
0996A121
87D34E6E
63C38E77
FC5E6F31
00A49B97
00000000
C6D85BA3
D94DA3A8
08DB4EC5
58B536D8
F3D1AB55
6AFF6545
B6B8189A
33CEF87B
CB4D8ABB
C4494B27
ADD24618
09912E32
BFA706E1
A35512CA
5ED56D5C
8AD5455D
9595470F
14E7DF27
0041C950
ED837585
AECCE16F
75AB67F1
001EB7A6
00000000
C6D85BA3
C914AFA8
09B36DE8
BF00AA27
17B77FE6
1FDD49C5
DB083870
7F8E2336
05D09B77
97FF317C
ADC5E7F2
09912E32
BFA706E1
A35512CA
5ED56D5C
8AD5455D
9595470F
14E7DF27
0041C950
ED837585
AECCE16F
75AB67F1
001EB7A6
00000000
C6D85BA3
BADBBAA8
098B8C0B
274C1D77
3C9C5377
D4BA2D45
FF585746
CB4E4EF0
3F52AD33
6BB518D1
00E8FDCD
436E62B8
CF88083D
29575339
8D656384
B5987839
EC547169
24333158
DE169743
AEEA726D
E88B2537
57A5F264
4E5AC981
78563412
DAEEEFAB
78563412
DAEEEFAB
78563412
DAEEEFAB
78563412
DAEEEFAB
78563412
DAEEEFAB
78563412
DAEEEFAB
01FF0100
010001FF
FF0100FF
FF0000FF
0101FF01
00FF01FF
FFFF0000
000000FF
0001FFFF
0000FFFF
FF01FF01
FF0100FF
01FF0001
01FF01FF
0001FF01
FF000100
0001FF01
FF00FF01
000001FF
000001FF
0100FF01
FF00FF00
FF000001
FF01FF00
00FF0100
FF01FFFF
0001FF00
0100FF00
FF00FF00
01010001
0001FFFF
FFFFFF00
FF0100FF
FF000100
FFFF0001
01FF00FF
0001FFFF
FF000000
010000FF
01FFFF01
FFFF00FF
00000101
000100FF
FFFFFF01
FF01FFFF
00FF00FF
FF00FF01
FF0001FF
0001FF01
00FF0001
00010000
00FF0101
00FFFF00
FFFFFF00
FF0101FF
FF01FFFF
FFFFFFFF
FF010001
0100FFFF
00FFFF01
62000001
206C6F6F
74736574
6C6C615F
51002928
59464441
46593955
4B544852
59584650
58434746
4E4D5A54
4D4C3947
4E514658
485A414A
5341394E
54555658
4E5A4645
49565643
584B4559
48454C5A
59444756
514D4B42
4B494959
395A4D47
39393939
43434900
41475046
39394B39
39393939
474E5539
4B544745
4D4D4D4B
39393900
39393939
39393939
39393939
39393939
39393939
39393939
39393939
39393939
39393939
39393939
39393939
39393939
39393939
39393939
39393939
39393939
39393939
39393939
39393939
39393939
39393939
39393939
39393939
39393939
39393939
39393939
39393939
39393939
39393939
39393939
39393939
39393939
39393939
39393939
39393939
39393939
39393939
39393939
39393939
39393939
39393939
39393939
39393939
39393939
39393939
39393939
39393939
39393939
39393939
39393939
39393939
39393939
39393939
39393939
39393939
39393939
39393939
39393939
39393939
39393939
39393939
39393939
39393939
39393939
39393939
39393939
39393939
39393939
39393939
39393939
39393939
39393939
39393939
39393939
39393939
39393939
39393939
39393939
39393939
39393939
39393939
39393939
39393939
39393939
39393939
39393939
39393939
39393939
39393939
39393939
39393939
39393939
39393939
39393939
39393939
39393939
39393939
39393939
39393939
39393939
39393939
39393939
39393939
39393939
39393939
39393939
39393939
39393939
39393939
39393939
39393939
39393939
39393939
39393939
39393939
39393939
39393939
39393939
39393939
39393939
39393939
39393939
39393939
39393939
39393939
39393939
39393939
39393939
39393939
39393939
39393939
39393939
39393939
39393939
39393939
39393939
39393939
39393939
39393939
39393939
39393939
39393939
39393939
39393939
39393939
39393939
39393939
39393939
39393939
39393939
39393939
39393939
39393939
39393939
39393939
39393939
39393939
39393939
39393939
39393939
39393939
39393939
39393939
39393939
39393939
39393939
39393939
39393939
39393939
39393939
39393939
39393939
39393939
39393939
39393939
39393939
39393939
39393939
39393939
39393939
39393939
39393939
39393939
39393939
39393939
39393939
39393939
39393939
39393939
39393939
39393939
39393939
39393939
39393939
39393939
39393939
39393939
39393939
39393939
39393939
39393939
39393939
39393939
39393939
39393939
39393939
39393939
39393939
39393939
39393939
39393939
39393939
39393939
39393939
39393939
39393939
39393939
39393939
39393939
39393939
39393939
39393939
39393939
39393939
39393939
39393939
39393939
39393939
39393939
39393939
39393939
39393939
39393939
39393939
39393939
39393939
39393939
39393939
39393939
39393939
39393939
39393939
39393939
39393939
39393939
39393939
39393939
39393939
39393939
39393939
39393939
39393939
39393939
39393939
39393939
39393939
39393939
39393939
39393939
39393939
39393939
39393939
39393939
39393939
39393939
39393939
39393939
39393939
39393939
39393939
39393939
39393939
39393939
39393939
39393939
39393939
39393939
39393939
39393939
39393939
39393939
39393939
39393939
39393939
39393939
39393939
39393939
39393939
39393939
39393939
39393939
39393939
39393939
39393939
39393939
39393939
39393939
39393939
39393939
39393939
39393939
39393939
39393939
39393939
39393939
39393939
39393939
39393939
39393939
39393939
39393939
39393939
39393939
39393939
39393939
39393939
39393939
39393939
39393939
39393939
39393939
39393939
39393939
39393939
39393939
39393939
39393939
39393939
39393939
39393939
39393939
39393939
39393939
39393939
39393939
39393939
39393939
39393939
39393939
39393939
39393939
39393939
39393939
39393939
39393939
39393939
39393939
39393939
39393939
39393939
39393939
39393939
39393939
39393939
39393939
39393939
39393939
39393939
39393939
39393939
39393939
39393939
39393939
39393939
39393939
39393939
39393939
39393939
39393939
39393939
39393939
39393939
39393939
39393939
39393939
39393939
39393939
39393939
39393939
39393939
39393939
39393939
39393939
39393939
39393939
39393939
39393939
39393939
39393939
39393939
39393939
39393939
39393939
39393939
39393939
39393939
39393939
39393939
39393939
39393939
39393939
39393939
39393939
39393939
39393939
39393939
39393939
39393939
39393939
39393939
39393939
39393939
39393939
39393939
39393939
39393939
39393939
39393939
39393939
39393939
39393939
39393939
39393939
39393939
39393939
39393939
39393939
39393939
39393939
39393939
39393939
39393939
39393939
39393939
39393939
39393939
39393939
39393939
39393939
39393939
39393939
39393939
39393939
39393939
39393939
39393939
39393939
39393939
39393939
39393939
39393939
39393939
39393939
39393939
39393939
39393939
39393939
39393939
39393939
39393939
39393939
39393939
39393939
39393939
39393939
39393939
39393939
39393939
39393939
39393939
39393939
39393939
39393939
39393939
39393939
39393939
39393939
39393939
39393939
39393939
39393939
39393939
39393939
39393939
39393939
39393939
39393939
39393939
39393939
39393939
39393939
39393939
39393939
39393939
39393939
39393939
39393939
39393939
39393939
39393939
39393939
39393939
39393939
39393939
39393939
39393939
39393939
39393939
39393939
39393939
39393939
39393939
39393939
39393939
39393939
39393939
39393939
39393939
39393939
39393939
39393939
39393939
39393939
39393939
39393939
39393939
39393939
39393939
39393939
39393939
39393939
39393939
39393939
39393939
39393939
39393939
39393939
39393939
39393939
39393939
39393939
39393939
39393939
39393939
39393939
39393939
47523941
47564B52
4D574D57
564C4F4B
5746444D
4E48554A
57594E55
414A545A
50474744
4E58475A
4C52454C
4A575958
51573945
42575748
5A50434D
4D56564D
574D554A
5A4C4257
4C4D4E4C
44474344
3939394A
39393939
39393939
39393939
39393939
39393939
39393939
39393939
39393939
39393939
39393939
39393939
39393939
59393939
49515947
39394456
39393939
39393939
39393939
39393939
58543939
4B4C4645
524A504E
505A5942
5A48524F
45433955
4649464D
42515656
44545355
434A5347
54424D5A
5444435A
55564A54
43545046
48485643
4D50524F
52554347
3948544B
494A4756
4A515558
394B4856
39393939
39393939
39393939
39393939
39393939
39393939
39393939
39393939
39393939
39393939
39393939
39393939
39393939
39393939
39393939
39393939
39393939
39393939
39393939
39393939
39393939
39393939
39393939
39393939
39393939
39393939
39393939
39393939
39393939
39393939
39393939
39393939
39393939
39393939
39393939
39393939
39393939
39393939
39393939
39393939
39393939
39393939
39393939
39393939
39393939
39393939
39393939
39393939
39393939
39393939
39393939
39393939
39393939
39393939
39393939
39393939
39393939
39393939
39393939
39393939
31003939
32323032
31323130
30323132
31323032
32313031
32323032
32313132
32313231
32313232
32303131
32313132
32323232
31323130
31303032
30313232
30323131
31313232
30303230
30303032
30303230
30303031
32303231
32323231
32313130
31313131
32303231
31303132
30323230
31313232
31303231
31323230
32323231
30303030
31323230
32303230
30313231
32323130
30313031
30323230
30313130
31323031
30303130
32303030
31323231
32313130
30303032
30303132
32323130
32303132
30313030
30323131
32323130
30323032
31323131
31323030
30323031
31313232
30313132
31303131
32323031
31003231
30303030
30303030
30303030
30303030
30303030
30303030
30303030
30303030
30303030
30303030
30303030
30303030
30303030
30303030
30303030
30303030
30303030
30303030
30303030
30303030
30303030
30303030
30303030
30303030
30303030
30303030
30303030
30303030
30303030
30303030
30303030
30303030
30303030
30303030
30303030
30303030
30303030
30303030
30303030
30303030
30303030
30303030
30303030
30303030
30303030
30303030
30303030
30303030
30303030
30303030
30303030
30303030
30303030
30303030
30303030
30303030
30303030
30303030
30303030
30303030
00003230
00000000
00000000
00004059
0000024D
00004005
00003F1D
000001E9
00003F61
43331104
40C40704
428A2F98
71374491
B5C0FBCF
E9B5DBA5
3956C25B
59F111F1
923F82A4
AB1C5ED5
D807AA98
12835B01
243185BE
550C7DC3
72BE5D74
80DEB1FE
9BDC06A7
C19BF174
E49B69C1
EFBE4786
0FC19DC6
240CA1CC
2DE92C6F
4A7484AA
5CB0A9DC
76F988DA
983E5152
A831C66D
B00327C8
BF597FC7
C6E00BF3
D5A79147
06CA6351
14292967
27B70A85
2E1B2138
4D2C6DFC
53380D13
650A7354
766A0ABB
81C2C92E
92722C85
A2BFE8A1
A81A664B
C24B8B70
C76C51A3
D192E819
D6990624
F40E3585
106AA070
19A4C116
1E376C08
2748774C
34B0BCB5
391C0CB3
4ED8AA4A
5B9CCA4F
682E6FF3
748F82EE
78A5636F
84C87814
8CC70208
90BEFFFA
A4506CEB
BEF9A3F7
C67178F2
000059BE
000058F0
000058F0
000058F0
000058F0
000058F0
000058F0
000058F0
000059B6
000059AE
000058F0
000058F0
000058F0
000058F0
000058F0
000058F0
000058F0
000058F0
000058F0
000058F0
000058F0
000058F0
000058F0
000058F0
000058F0
000058F0
000058F0
000058F0
000058F0
000058F0
000058F0
000058F0
000058F0
000058F0
000058F0
000058F0
000058F0
000058F0
000058F0
000058F0
000058F0
000058F0
000058F0
000058F0
000058F0
000058F0
000058F0
000058F0
000058F0
000058F0
000058F0
00005998
000058F0
000058F0
000058F0
00005978
000058F0
000058F0
000058F0
000058F0
000058F0
000058F0
0000596A
000058E0
000058F0
000058F0
000058F0
000058F0
000058E0
000058F0
000058F0
00005966
000058F0
000058F0
000058F0
00005998
000058F0
000058F0
00005912
000058F0
000058DC
000058F0
000058F0
00005998
33323130
37363534
42413938
46454443
00000000
69706778
00632E6F
69706778
69735F6F
2E74696E
00000063
00006D2C
00006C2E
00006C2E
00006F4C
00006C28
00006C28
00006F34
00006F4C
00006C28
00006F34
00006C28
00006F4C
00006F42
00006F42
00006F42
00006F50
00000043
49534F50
00000058
0000002E
20202000
20202020
28282020
20282828
20202020
20202020
20202020
20202020
10108820
10101010
10101010
10101010
04040410
04040404
10040404
10101010
41411010
41414141
01010101
01010101
01010101
01010101
01010101
10101010
42421010
42424242
02020202
02020202
02020202
02020202
02020202
10101010
00000020
00000000
00000000
00000000
00000000
00000000
00000000
00000000
00000000
00000000
00000000
00000000
00000000
00000000
00000000
00000000
00000000
00000000
00000000
00000000
00000000
00000000
00000000
00000000
00000000
00000000
00000000
00000000
00000000
00000000
00000000
00000000
00000000
7FFFCAD4
00000001
20000770
00000000
05F5E100
FFFFFFFF
00000000
3FF00000
00000000
00000000
00000000
00000000
00000000
00000000
00000000
00000000
00000000
00000000
00000000
00000000
00000000
00000000
00000000
00000000
00000000
40240000
00000000
40590000
00000000
40C38800
00000000
4197D784
37E08000
4341C379
00000000
00000000
00000000
00000000
00000000
00000000
00000000
00000000
0000805E
000022B5
00008067
0000102D
00008080
00002495
00008093
0000236D
00007DD7
00002095
000080A3
00001D55
000080A9
00001E29
00000000
00000000
0000824C
200000E0
20010A00
00002301
00600000
07060504
000101EE
000000C0
44C42FAF
F4C42087
0F0F0F8F
64838F9F
44C444C4
44C444C4
44C444C4
44C444C4
FFFFFFFF
00000000
FFFFFFFF
00000000
00000000
00760000
00000000
00000000
00000000
4000FFFF
00000000
001C0033
001C0013
003E003C
0033001C
001C001C
001C001C
001C001C
001C001C
00008613
00008665
00008681
000090F3
000091E7
00000300
000000C0
000186A0
00000000
00000000
00000000
00000000
00000000
00000000
00000320
00000003
00000000
00000001
00000000
40000000
00000000
00000001
00000001
40010000
00000000
00000001
200001D8
00000000
200004C4
2000052C
20000594
00000000
00000000
00000000
00000000
00000000
00000000
00000000
00000000
00000000
00000000
00000000
00000000
00000000
00000000
00000000
00000000
00000000
00000000
00000000
00000000
00000000
00000000
00000000
00000000
00000000
00000000
00000000
00000000
00000000
00000000
00000000
00000000
00000000
00000000
00000000
00000000
00000000
00000000
00000001
00000000
ABCD330E
E66D1234
0005DEEC
0000000B
00000000
00000000
00000000
00000000
00000000
00000000
00000000
00000000
00000000
00000000
00000000
00000000
00000000
00000000
00000000
00000000
00000000
00000000
00000000
00000000
00000000
00000000
00000000
00000000
00000000
00000000
00000000
00000000
00000000
00000000
00000000
00000000
00000000
00000000
00000000
00000000
00000000
00000000
00000000
00000000
00000000
00000000
00000000
00000000
00000000
00000000
00000000
00000000
00000000
00000000
00000000
00000000
00000000
00000000
00000000
00000000
00000000
00000000
00000000
00000000
00000000
00000000
00000000
00000000
00000000
00000000
00000000
00000000
00000000
00000000
00000000
00000000
00000000
00000000
00000000
00000000
00000000
00000000
00000000
00000000
00000000
00000000
00000000
00000000
00000000
00000000
00000000
00000000
00000000
00000000
00000000
00000000
00000000
00000000
00000000
00000000
00000000
00000000
00000000
00000000
00000000
00000000
00000000
00000000
00000000
00000000
00000000
00000000
00000000
00000000
00000000
00000000
00000000
00000000
00000000
00000000
00000000
00000000
00000000
00000000
00000000
00000000
00000000
00000000
00000000
00000000
00000000
00000000
00000000
00000000
00000000
00000000
00000000
00000000
00000000
00000000
00000000
00000000
00000000
00000000
00000000
00000000
00000000
00000000
00000000
00000000
00000000
00000000
00000000
00000000
00000000
00000000
00000000
00000000
00000000
00000000
00000000
00000000
00000000
00000000
00000000
00000000
00000000
00000000
00000000
00000000
00000000
00000000
00000000
00000000
00000000
00000000
00000000
00000000
00000000
00000000
00000000
00000000
00000000
00000000
00000000
00000000
00000000
00000000
00000000
00000000
00000000
00000000
00000000
00000000
00000000
00000000
00000000
00000000
00000000
00000000
00000000
00000000
00000000
00000000
00000000
00000000
00000000
00000000
00000000
00000000
00000000
00000000
00000000
00000000
00000000
00000000
00000000
00000000
00000000
00000000
00000000
00000000
00000043
00000000
00000000
00000000
00000000
00000000
00000000
00000000
00000043
00000000
00000000
00000000
00000000
00000000
00000000
00000000
00000043
00000000
00000000
00000000
00000000
00000000
00000000
00000000
00000043
00000000
00000000
00000000
00000000
00000000
00000000
00000000
00000043
00000000
00000000
00000000
00000000
00000000
00000000
00000000
00000043
00000000
00000000
00000000
00000000
00000000
00000000
00000000
00000043
00000000
00000000
00000000
00000000
00000000
00000000
00000000
00007BA5
00007829
00000000
000095D0
000095CC
00009564
00009564
00009564
00009564
00009564
00009564
00009564
00009564
00009564
FFFFFFFF
FFFFFFFF
FFFFFFFF
0000FFFF
53410001
00494943
00000000
00000000
00000000
00000000
00000000
00000000
53410000
00494943
00000000
00000000
00000000
00000000
00000000
00000000
00000000
