01010110000100100011001110110010
01100000110011001111000001000001
00110000001101100110111110011100
11111101101100101111001111100111
00101110101111010010101110110111
10110000101001010100000010010100
01100101100000111011010100001010
01000011101100010000000101011011
10011010001111100011000111011111
00000010011100101001000010100000
01000000000101100101111111011111
11010100111101000110010010001110
00111101111001101000000000110111
11100101101011010110100001001001
00010011110000000010001011011000
10000100001000111100001111111100
10011111010101100001101101011101
00000000101101100000010111100111
00010100111011001111111000000110
11100011101100010000110101011010
